G04 #@! TF.FileFunction,Legend,Top*
%FSLAX46Y46*%
G04 Gerber Fmt 4.6, Leading zero omitted, Abs format (unit mm)*
G04 Created by KiCad (PCBNEW 4.0.6) date 05/17/18 18:22:37*
%MOMM*%
%LPD*%
G01*
G04 APERTURE LIST*
%ADD10C,0.100000*%
%ADD11C,0.180000*%
%ADD12C,0.150000*%
%ADD13C,0.120000*%
G04 APERTURE END LIST*
D10*
D11*
X116097857Y-44519998D02*
X116997857Y-44519998D01*
X116140714Y-44519998D02*
X116097857Y-44434284D01*
X116097857Y-44262855D01*
X116140714Y-44177141D01*
X116183571Y-44134284D01*
X116269286Y-44091427D01*
X116526429Y-44091427D01*
X116612143Y-44134284D01*
X116655000Y-44177141D01*
X116697857Y-44262855D01*
X116697857Y-44434284D01*
X116655000Y-44519998D01*
X116097857Y-44948570D02*
X116697857Y-44948570D01*
X116997857Y-44948570D02*
X116955000Y-44905713D01*
X116912143Y-44948570D01*
X116955000Y-44991427D01*
X116997857Y-44948570D01*
X116912143Y-44948570D01*
X116697857Y-45291426D02*
X116097857Y-45505712D01*
X116697857Y-45719998D02*
X116097857Y-45505712D01*
X115883571Y-45419998D01*
X115840714Y-45377141D01*
X115797857Y-45291426D01*
X116569286Y-46362855D02*
X116569286Y-46062855D01*
X116097857Y-46062855D02*
X116997857Y-46062855D01*
X116997857Y-46491426D01*
X116097857Y-46962855D02*
X116140714Y-46877141D01*
X116226429Y-46834284D01*
X116997857Y-46834284D01*
X116097857Y-47305713D02*
X116697857Y-47305713D01*
X116997857Y-47305713D02*
X116955000Y-47262856D01*
X116912143Y-47305713D01*
X116955000Y-47348570D01*
X116997857Y-47305713D01*
X116912143Y-47305713D01*
X116697857Y-48119998D02*
X115969286Y-48119998D01*
X115883571Y-48077141D01*
X115840714Y-48034284D01*
X115797857Y-47948569D01*
X115797857Y-47819998D01*
X115840714Y-47734284D01*
X116140714Y-48119998D02*
X116097857Y-48034284D01*
X116097857Y-47862855D01*
X116140714Y-47777141D01*
X116183571Y-47734284D01*
X116269286Y-47691427D01*
X116526429Y-47691427D01*
X116612143Y-47734284D01*
X116655000Y-47777141D01*
X116697857Y-47862855D01*
X116697857Y-48034284D01*
X116655000Y-48119998D01*
X116097857Y-48548570D02*
X116997857Y-48548570D01*
X116097857Y-48934284D02*
X116569286Y-48934284D01*
X116655000Y-48891427D01*
X116697857Y-48805713D01*
X116697857Y-48677141D01*
X116655000Y-48591427D01*
X116612143Y-48548570D01*
X116697857Y-49234284D02*
X116697857Y-49577141D01*
X116997857Y-49362856D02*
X116226429Y-49362856D01*
X116140714Y-49405713D01*
X116097857Y-49491427D01*
X116097857Y-49577141D01*
X116140714Y-50262856D02*
X116097857Y-50177142D01*
X116097857Y-50005713D01*
X116140714Y-49919999D01*
X116183571Y-49877142D01*
X116269286Y-49834285D01*
X116526429Y-49834285D01*
X116612143Y-49877142D01*
X116655000Y-49919999D01*
X116697857Y-50005713D01*
X116697857Y-50177142D01*
X116655000Y-50262856D01*
X116097857Y-50777142D02*
X116140714Y-50691428D01*
X116183571Y-50648571D01*
X116269286Y-50605714D01*
X116526429Y-50605714D01*
X116612143Y-50648571D01*
X116655000Y-50691428D01*
X116697857Y-50777142D01*
X116697857Y-50905714D01*
X116655000Y-50991428D01*
X116612143Y-51034285D01*
X116526429Y-51077142D01*
X116269286Y-51077142D01*
X116183571Y-51034285D01*
X116140714Y-50991428D01*
X116097857Y-50905714D01*
X116097857Y-50777142D01*
X116697857Y-51462857D02*
X116097857Y-51462857D01*
X116612143Y-51462857D02*
X116655000Y-51505714D01*
X116697857Y-51591428D01*
X116697857Y-51720000D01*
X116655000Y-51805714D01*
X116569286Y-51848571D01*
X116097857Y-51848571D01*
X116697857Y-52148571D02*
X116697857Y-52491428D01*
X116997857Y-52277143D02*
X116226429Y-52277143D01*
X116140714Y-52320000D01*
X116097857Y-52405714D01*
X116097857Y-52491428D01*
X116097857Y-52791429D02*
X116697857Y-52791429D01*
X116526429Y-52791429D02*
X116612143Y-52834286D01*
X116655000Y-52877143D01*
X116697857Y-52962857D01*
X116697857Y-53048572D01*
X116097857Y-53477143D02*
X116140714Y-53391429D01*
X116183571Y-53348572D01*
X116269286Y-53305715D01*
X116526429Y-53305715D01*
X116612143Y-53348572D01*
X116655000Y-53391429D01*
X116697857Y-53477143D01*
X116697857Y-53605715D01*
X116655000Y-53691429D01*
X116612143Y-53734286D01*
X116526429Y-53777143D01*
X116269286Y-53777143D01*
X116183571Y-53734286D01*
X116140714Y-53691429D01*
X116097857Y-53605715D01*
X116097857Y-53477143D01*
X116097857Y-54291429D02*
X116140714Y-54205715D01*
X116226429Y-54162858D01*
X116997857Y-54162858D01*
X116097857Y-54762858D02*
X116140714Y-54677144D01*
X116226429Y-54634287D01*
X116997857Y-54634287D01*
X116140714Y-55448573D02*
X116097857Y-55362859D01*
X116097857Y-55191430D01*
X116140714Y-55105716D01*
X116226429Y-55062859D01*
X116569286Y-55062859D01*
X116655000Y-55105716D01*
X116697857Y-55191430D01*
X116697857Y-55362859D01*
X116655000Y-55448573D01*
X116569286Y-55491430D01*
X116483571Y-55491430D01*
X116397857Y-55062859D01*
X116097857Y-55877145D02*
X116697857Y-55877145D01*
X116526429Y-55877145D02*
X116612143Y-55920002D01*
X116655000Y-55962859D01*
X116697857Y-56048573D01*
X116697857Y-56134288D01*
X114567857Y-48634286D02*
X114996429Y-48334286D01*
X114567857Y-48120001D02*
X115467857Y-48120001D01*
X115467857Y-48462858D01*
X115425000Y-48548572D01*
X115382143Y-48591429D01*
X115296429Y-48634286D01*
X115167857Y-48634286D01*
X115082143Y-48591429D01*
X115039286Y-48548572D01*
X114996429Y-48462858D01*
X114996429Y-48120001D01*
X114610714Y-49362858D02*
X114567857Y-49277144D01*
X114567857Y-49105715D01*
X114610714Y-49020001D01*
X114696429Y-48977144D01*
X115039286Y-48977144D01*
X115125000Y-49020001D01*
X115167857Y-49105715D01*
X115167857Y-49277144D01*
X115125000Y-49362858D01*
X115039286Y-49405715D01*
X114953571Y-49405715D01*
X114867857Y-48977144D01*
X115167857Y-49705715D02*
X114567857Y-49920001D01*
X115167857Y-50134287D01*
X114653571Y-50477144D02*
X114610714Y-50520001D01*
X114567857Y-50477144D01*
X114610714Y-50434287D01*
X114653571Y-50477144D01*
X114567857Y-50477144D01*
X115467857Y-51762857D02*
X115467857Y-51848572D01*
X115425000Y-51934286D01*
X115382143Y-51977143D01*
X115296429Y-52020000D01*
X115125000Y-52062857D01*
X114910714Y-52062857D01*
X114739286Y-52020000D01*
X114653571Y-51977143D01*
X114610714Y-51934286D01*
X114567857Y-51848572D01*
X114567857Y-51762857D01*
X114610714Y-51677143D01*
X114653571Y-51634286D01*
X114739286Y-51591429D01*
X114910714Y-51548572D01*
X115125000Y-51548572D01*
X115296429Y-51591429D01*
X115382143Y-51634286D01*
X115425000Y-51677143D01*
X115467857Y-51762857D01*
D12*
X119775000Y-53500000D02*
X119775000Y-54500000D01*
X130125000Y-53500000D02*
X130125000Y-54575000D01*
X130125000Y-63850000D02*
X130125000Y-62775000D01*
X119775000Y-63850000D02*
X119775000Y-62775000D01*
X119775000Y-53500000D02*
X120850000Y-53500000D01*
X119775000Y-63850000D02*
X120850000Y-63850000D01*
X130125000Y-63850000D02*
X129050000Y-63850000D01*
X130125000Y-53500000D02*
X129050000Y-53500000D01*
X119775000Y-54500000D02*
X118750000Y-54500000D01*
D13*
X113650000Y-47600000D02*
X111530000Y-47600000D01*
X113650000Y-57660000D02*
X113650000Y-47600000D01*
X111530000Y-57660000D02*
X111530000Y-47600000D01*
X113650000Y-57660000D02*
X111530000Y-57660000D01*
X113650000Y-58660000D02*
X113650000Y-59720000D01*
X113650000Y-59720000D02*
X112590000Y-59720000D01*
X120390000Y-48470000D02*
X122390000Y-48470000D01*
X122390000Y-46430000D02*
X120390000Y-46430000D01*
D12*
X125870000Y-40200000D02*
X125870000Y-48200000D01*
X133870000Y-40200000D02*
X133870000Y-48200000D01*
D13*
X115005000Y-46935000D02*
X115005000Y-45935000D01*
X115005000Y-45935000D02*
X112905000Y-45935000D01*
X115005000Y-46935000D02*
X112905000Y-46935000D01*
X125170000Y-44300000D02*
X125170000Y-41000000D01*
X125170000Y-41000000D02*
X119770000Y-41000000D01*
X125170000Y-44300000D02*
X119770000Y-44300000D01*
X115005000Y-45560000D02*
X115005000Y-44560000D01*
X115005000Y-44560000D02*
X112905000Y-44560000D01*
X115005000Y-45560000D02*
X112905000Y-45560000D01*
X136655000Y-67315000D02*
X139195000Y-67315000D01*
X139195000Y-65535000D02*
X136655000Y-65535000D01*
X139195000Y-65535000D02*
X139195000Y-67315000D01*
X136655000Y-67315000D02*
X136655000Y-65535000D01*
X136310000Y-71435000D02*
X136310000Y-69315000D01*
X126250000Y-71435000D02*
X136310000Y-71435000D01*
X126250000Y-69315000D02*
X136310000Y-69315000D01*
X126250000Y-71435000D02*
X126250000Y-69315000D01*
X125250000Y-71435000D02*
X124190000Y-71435000D01*
X124190000Y-71435000D02*
X124190000Y-70375000D01*
X122240000Y-34540000D02*
X122240000Y-36660000D01*
X132300000Y-34540000D02*
X122240000Y-34540000D01*
X132300000Y-36660000D02*
X122240000Y-36660000D01*
X132300000Y-34540000D02*
X132300000Y-36660000D01*
X133300000Y-34540000D02*
X134360000Y-34540000D01*
X134360000Y-34540000D02*
X134360000Y-35600000D01*
X109380000Y-59720000D02*
X111500000Y-59720000D01*
X109380000Y-49660000D02*
X109380000Y-59720000D01*
X111500000Y-49660000D02*
X111500000Y-59720000D01*
X109380000Y-49660000D02*
X111500000Y-49660000D01*
X109380000Y-48660000D02*
X109380000Y-47600000D01*
X109380000Y-47600000D02*
X110440000Y-47600000D01*
X136310000Y-69435000D02*
X136310000Y-67315000D01*
X126250000Y-69435000D02*
X136310000Y-69435000D01*
X126250000Y-67315000D02*
X136310000Y-67315000D01*
X126250000Y-69435000D02*
X126250000Y-67315000D01*
X125250000Y-69435000D02*
X124190000Y-69435000D01*
X124190000Y-69435000D02*
X124190000Y-68375000D01*
X122240000Y-36540000D02*
X122240000Y-38660000D01*
X132300000Y-36540000D02*
X122240000Y-36540000D01*
X132300000Y-38660000D02*
X122240000Y-38660000D01*
X132300000Y-36540000D02*
X132300000Y-38660000D01*
X133300000Y-36540000D02*
X134360000Y-36540000D01*
X134360000Y-36540000D02*
X134360000Y-37600000D01*
X121500000Y-51170000D02*
X120800000Y-51170000D01*
X120800000Y-49970000D02*
X121500000Y-49970000D01*
X117150000Y-60010000D02*
X117150000Y-60710000D01*
X115950000Y-60710000D02*
X115950000Y-60010000D01*
X141520000Y-53540000D02*
X141520000Y-49720000D01*
X141520000Y-49720000D02*
X139740000Y-49720000D01*
X139740000Y-49720000D02*
X139740000Y-53540000D01*
X141520000Y-53540000D02*
X139740000Y-53540000D01*
X112320000Y-60250000D02*
X113520000Y-60250000D01*
X113520000Y-62010000D02*
X112320000Y-62010000D01*
X139540000Y-64485000D02*
X141660000Y-64485000D01*
X139540000Y-62425000D02*
X139540000Y-64485000D01*
X141660000Y-62425000D02*
X141660000Y-64485000D01*
X139540000Y-62425000D02*
X141660000Y-62425000D01*
X139540000Y-61425000D02*
X139540000Y-60365000D01*
X139540000Y-60365000D02*
X140600000Y-60365000D01*
X122190000Y-69430000D02*
X124310000Y-69430000D01*
X122190000Y-69370000D02*
X122190000Y-69430000D01*
X124310000Y-69370000D02*
X124310000Y-69430000D01*
X122190000Y-69370000D02*
X124310000Y-69370000D01*
X122190000Y-68370000D02*
X122190000Y-67310000D01*
X122190000Y-67310000D02*
X123250000Y-67310000D01*
X122190000Y-71435000D02*
X124310000Y-71435000D01*
X122190000Y-71375000D02*
X122190000Y-71435000D01*
X124310000Y-71375000D02*
X124310000Y-71435000D01*
X122190000Y-71375000D02*
X124310000Y-71375000D01*
X122190000Y-70375000D02*
X122190000Y-69315000D01*
X122190000Y-69315000D02*
X123250000Y-69315000D01*
X137370000Y-40660000D02*
X139490000Y-40660000D01*
X137370000Y-40600000D02*
X137370000Y-40660000D01*
X139490000Y-40600000D02*
X139490000Y-40660000D01*
X137370000Y-40600000D02*
X139490000Y-40600000D01*
X137370000Y-39600000D02*
X137370000Y-38540000D01*
X137370000Y-38540000D02*
X138430000Y-38540000D01*
X135100000Y-38660000D02*
X137220000Y-38660000D01*
X135100000Y-38600000D02*
X135100000Y-38660000D01*
X137220000Y-38600000D02*
X137220000Y-38660000D01*
X135100000Y-38600000D02*
X137220000Y-38600000D01*
X135100000Y-37600000D02*
X135100000Y-36540000D01*
X135100000Y-36540000D02*
X136160000Y-36540000D01*
X119410000Y-36660000D02*
X121530000Y-36660000D01*
X119410000Y-36600000D02*
X119410000Y-36660000D01*
X121530000Y-36600000D02*
X121530000Y-36660000D01*
X119410000Y-36600000D02*
X121530000Y-36600000D01*
X119410000Y-35600000D02*
X119410000Y-34540000D01*
X119410000Y-34540000D02*
X120470000Y-34540000D01*
X137365000Y-38660000D02*
X139485000Y-38660000D01*
X137365000Y-38600000D02*
X137365000Y-38660000D01*
X139485000Y-38600000D02*
X139485000Y-38660000D01*
X137365000Y-38600000D02*
X139485000Y-38600000D01*
X137365000Y-37600000D02*
X137365000Y-36540000D01*
X137365000Y-36540000D02*
X138425000Y-36540000D01*
X113660000Y-43550000D02*
X113660000Y-41430000D01*
X113600000Y-43550000D02*
X113660000Y-43550000D01*
X113600000Y-41430000D02*
X113660000Y-41430000D01*
X113600000Y-43550000D02*
X113600000Y-41430000D01*
X112600000Y-43550000D02*
X111540000Y-43550000D01*
X111540000Y-43550000D02*
X111540000Y-42490000D01*
X111540000Y-64685000D02*
X113660000Y-64685000D01*
X111540000Y-64625000D02*
X111540000Y-64685000D01*
X113660000Y-64625000D02*
X113660000Y-64685000D01*
X111540000Y-64625000D02*
X113660000Y-64625000D01*
X111540000Y-63625000D02*
X111540000Y-62565000D01*
X111540000Y-62565000D02*
X112600000Y-62565000D01*
X142315000Y-64485000D02*
X144435000Y-64485000D01*
X142315000Y-64425000D02*
X142315000Y-64485000D01*
X144435000Y-64425000D02*
X144435000Y-64485000D01*
X142315000Y-64425000D02*
X144435000Y-64425000D01*
X142315000Y-63425000D02*
X142315000Y-62365000D01*
X142315000Y-62365000D02*
X143375000Y-62365000D01*
X139670000Y-42860000D02*
X141790000Y-42860000D01*
X139670000Y-42800000D02*
X139670000Y-42860000D01*
X141790000Y-42800000D02*
X141790000Y-42860000D01*
X139670000Y-42800000D02*
X141790000Y-42800000D01*
X139670000Y-41800000D02*
X139670000Y-40740000D01*
X139670000Y-40740000D02*
X140730000Y-40740000D01*
X116590000Y-36660000D02*
X118710000Y-36660000D01*
X116590000Y-36600000D02*
X116590000Y-36660000D01*
X118710000Y-36600000D02*
X118710000Y-36660000D01*
X116590000Y-36600000D02*
X118710000Y-36600000D01*
X116590000Y-35600000D02*
X116590000Y-34540000D01*
X116590000Y-34540000D02*
X117650000Y-34540000D01*
X116190000Y-71435000D02*
X118310000Y-71435000D01*
X116190000Y-71375000D02*
X116190000Y-71435000D01*
X118310000Y-71375000D02*
X118310000Y-71435000D01*
X116190000Y-71375000D02*
X118310000Y-71375000D01*
X116190000Y-70375000D02*
X116190000Y-69315000D01*
X116190000Y-69315000D02*
X117250000Y-69315000D01*
X137000000Y-71430000D02*
X139120000Y-71430000D01*
X137000000Y-71370000D02*
X137000000Y-71430000D01*
X139120000Y-71370000D02*
X139120000Y-71430000D01*
X137000000Y-71370000D02*
X139120000Y-71370000D01*
X137000000Y-70370000D02*
X137000000Y-69310000D01*
X137000000Y-69310000D02*
X138060000Y-69310000D01*
X137365000Y-36660000D02*
X139485000Y-36660000D01*
X137365000Y-36600000D02*
X137365000Y-36660000D01*
X139485000Y-36600000D02*
X139485000Y-36660000D01*
X137365000Y-36600000D02*
X139485000Y-36600000D01*
X137365000Y-35600000D02*
X137365000Y-34540000D01*
X137365000Y-34540000D02*
X138425000Y-34540000D01*
X111660000Y-43550000D02*
X111660000Y-41430000D01*
X111600000Y-43550000D02*
X111660000Y-43550000D01*
X111600000Y-41430000D02*
X111660000Y-41430000D01*
X111600000Y-43550000D02*
X111600000Y-41430000D01*
X110600000Y-43550000D02*
X109540000Y-43550000D01*
X109540000Y-43550000D02*
X109540000Y-42490000D01*
X109540000Y-64685000D02*
X111660000Y-64685000D01*
X109540000Y-64625000D02*
X109540000Y-64685000D01*
X111660000Y-64625000D02*
X111660000Y-64685000D01*
X109540000Y-64625000D02*
X111660000Y-64625000D01*
X109540000Y-63625000D02*
X109540000Y-62565000D01*
X109540000Y-62565000D02*
X110600000Y-62565000D01*
X144315000Y-64485000D02*
X146435000Y-64485000D01*
X144315000Y-64425000D02*
X144315000Y-64485000D01*
X146435000Y-64425000D02*
X146435000Y-64485000D01*
X144315000Y-64425000D02*
X146435000Y-64425000D01*
X144315000Y-63425000D02*
X144315000Y-62365000D01*
X144315000Y-62365000D02*
X145375000Y-62365000D01*
X117525861Y-66258739D02*
X117738351Y-66046249D01*
X118296249Y-65488351D02*
X118508739Y-65275861D01*
X115492929Y-64225807D02*
X117525861Y-66258739D01*
X116475807Y-63242929D02*
X118508739Y-65275861D01*
X115492929Y-64225807D02*
X115554252Y-64164484D01*
X116414484Y-63304252D02*
X116475807Y-63242929D01*
X115008561Y-63741439D02*
X114524193Y-63257071D01*
X114524193Y-63257071D02*
X115015632Y-62765632D01*
X138490000Y-45080000D02*
X140490000Y-45080000D01*
X140490000Y-43040000D02*
X138490000Y-43040000D01*
M02*
