M48
;DRILL file {KiCad 4.0.6} date 05/17/18 18:22:51
;FORMAT={-:-/ absolute / inch / decimal}
FMAT,2
INCH,TZ
T1C0.035
T2C0.126
%
G90
G05
M72
T1
X5.7028Y-1.7874
X5.7028Y-1.9055
T2
X4.439Y-1.4862
X4.439Y-2.687
X5.6398Y-1.4862
X5.6398Y-2.687
T0
M30
