EESchema Schematic File Version 2
LIBS:LP5907
LIBS:TL1963A-33DCYR
LIBS:power
LIBS:device
LIBS:transistors
LIBS:conn
LIBS:linear
LIBS:regul
LIBS:74xx
LIBS:cmos4000
LIBS:adc-dac
LIBS:memory
LIBS:xilinx
LIBS:microcontrollers
LIBS:dsp
LIBS:microchip
LIBS:analog_switches
LIBS:motorola
LIBS:texas
LIBS:intel
LIBS:audio
LIBS:interface
LIBS:digital-audio
LIBS:philips
LIBS:display
LIBS:cypress
LIBS:siliconi
LIBS:opto
LIBS:atmel
LIBS:contrib
LIBS:valves
LIBS:74xgxx
LIBS:ac-dc
LIBS:actel
LIBS:allegro
LIBS:Altera
LIBS:analog_devices
LIBS:battery_management
LIBS:bbd
LIBS:bosch
LIBS:brooktre
LIBS:cmos_ieee
LIBS:Connector
LIBS:dc-dc
LIBS:diode
LIBS:driver_gate
LIBS:DSP_Microchip_DSPIC33
LIBS:elec-unifil
LIBS:ESD_Protection
LIBS:Espressif
LIBS:FPGA_Actel
LIBS:freescale_kl0mcu
LIBS:ftdi
LIBS:gennum
LIBS:graphic
LIBS:hc11
LIBS:infineon
LIBS:intersil
LIBS:ir
LIBS:Lattice
LIBS:LED
LIBS:leds
LIBS:LEM
LIBS:Logic_74xgxx
LIBS:Logic_74xx
LIBS:Logic_CMOS_4000
LIBS:Logic_CMOS_IEEE
LIBS:logic_programmable
LIBS:Logic_TTL_IEEE
LIBS:logo
LIBS:maxim
LIBS:MCU_Microchip_PIC10
LIBS:MCU_Microchip_PIC12
LIBS:MCU_Microchip_PIC16
LIBS:MCU_Microchip_PIC18
LIBS:MCU_Microchip_PIC24
LIBS:MCU_Microchip_PIC32
LIBS:MCU_NXP_Kinetis
LIBS:MCU_NXP_LPC
LIBS:MCU_NXP_S08
LIBS:MCU_Parallax
LIBS:MCU_ST_STM8
LIBS:MCU_ST_STM32
LIBS:MCU_Texas_MSP430
LIBS:mechanical
LIBS:microchip_dspic33dsc
LIBS:microchip_pic10mcu
LIBS:microchip_pic12mcu
LIBS:microchip_pic16mcu
LIBS:microchip_pic18mcu
LIBS:microchip_pic24mcu
LIBS:microchip_pic32mcu
LIBS:modules
LIBS:Motor
LIBS:motor_drivers
LIBS:motors
LIBS:MP2560
LIBS:MS5611
LIBS:msp430
LIBS:NorBot
LIBS:nordicsemi
LIBS:nxp
LIBS:nxp_armmcu
LIBS:onsemi
LIBS:Oscillators
LIBS:Power_Management
LIBS:powerint
LIBS:pspice
LIBS:references
LIBS:Relay
LIBS:relays
LIBS:rfcom
LIBS:RFSolutions
LIBS:Sensor_Current
LIBS:sensors
LIBS:silabs
LIBS:stm8
LIBS:stm32
LIBS:supertex
LIBS:Switch
LIBS:switches
LIBS:teensy
LIBS:Teensy_DIY_v1.0
LIBS:transf
LIBS:Transformer
LIBS:Transistor
LIBS:triac_thyristor
LIBS:ttl_ieee
LIBS:Valve
LIBS:video
LIBS:wiznet
LIBS:Worldsemi
LIBS:Xicor
LIBS:zetex
LIBS:Zilog
LIBS:Flightcontroller-cache
LIBS:ICM-20602
LIBS:MS5637
LIBS:Flightcontroller_2-cache
EELAYER 25 0
EELAYER END
$Descr A2 23386 16535
encoding utf-8
Sheet 1 1
Title "diy_flight_controller"
Date ""
Rev "1.0"
Comp ""
Comment1 "Flightcontroller für Quadcopter - Take 2"
Comment2 "Basierend auf STM32F722RE"
Comment3 ""
Comment4 ""
$EndDescr
$Comp
L USB_OTG J2
U 1 1 5900CAF1
P 1875 3275
F 0 "J2" H 1675 3725 50  0000 L CNN
F 1 "USB_OTG" H 1675 3625 50  0000 L CNN
F 2 "USB_receptacle:Molex_Micro_USB_AB_female_bottom_mount" H 2025 3225 50  0001 C CNN
F 3 "https://www.mouser.ch/ProductDetail/Molex/47590-0001?qs=sGAEpiMZZMulM8LPOQ%252bykx8BWep1wdZAK1bUT7o5QIE%3d" H 2025 3225 50  0001 C CNN
	1    1875 3275
	1    0    0    -1  
$EndComp
$Comp
L GND #PWR01
U 1 1 5900CB6C
P 1775 3925
F 0 "#PWR01" H 1775 3675 50  0001 C CNN
F 1 "GND" H 1775 3775 50  0000 C CNN
F 2 "" H 1775 3925 50  0001 C CNN
F 3 "" H 1775 3925 50  0001 C CNN
	1    1775 3925
	1    0    0    -1  
$EndComp
$Comp
L GS2 J4
U 1 1 5915DEFC
P 2450 1150
F 0 "J4" H 2550 1300 50  0000 C CNN
F 1 "GS2" H 2550 1001 50  0000 C CNN
F 2 "Connectors:GS2" V 2524 1150 50  0001 C CNN
F 3 "" H 2450 1150 50  0001 C CNN
	1    2450 1150
	0    1    1    0   
$EndComp
$Comp
L C_Small C9
U 1 1 5939B71B
P 11700 12425
F 0 "C9" H 11710 12495 50  0000 L CNN
F 1 ">=100nF" H 11710 12345 50  0000 L CNN
F 2 "Capacitors_SMD:C_0402_NoSilk" H 11700 12425 50  0001 C CNN
F 3 "" H 11700 12425 50  0001 C CNN
	1    11700 12425
	1    0    0    -1  
$EndComp
Text Notes 1400 1425 0    60   ~ 0
V_USB
$Comp
L MP2560 U4
U 1 1 593FF7D5
P 18300 11325
F 0 "U4" H 18500 11050 60  0000 C CNN
F 1 "MP2560" H 18450 11600 48  0000 C CNN
F 2 "MP2560:MP2560_SOIC8E" H 18350 10275 60  0001 C CNN
F 3 "http://www.mouser.com/ds/2/277/MP2560_r1.21-477456.pdf" H 18350 10275 60  0001 C CNN
	1    18300 11325
	1    0    0    -1  
$EndComp
$Comp
L R_Small R24
U 1 1 594001D9
P 20000 11575
F 0 "R24" H 20030 11595 50  0000 L CNN
F 1 "40,2k" H 20030 11535 50  0000 L CNN
F 2 "Resistors_SMD:R_0402_NoSilk" H 20000 11575 50  0001 C CNN
F 3 "" H 20000 11575 50  0001 C CNN
	1    20000 11575
	1    0    0    -1  
$EndComp
$Comp
L R_Small R18
U 1 1 594012A4
P 17700 11850
F 0 "R18" H 17730 11870 50  0000 L CNN
F 1 "200k" H 17730 11810 50  0000 L CNN
F 2 "Resistors_SMD:R_0402_NoSilk" H 17700 11850 50  0001 C CNN
F 3 "" H 17700 11850 50  0001 C CNN
	1    17700 11850
	1    0    0    -1  
$EndComp
$Comp
L R_Small R23
U 1 1 59401361
P 18900 11925
F 0 "R23" H 18930 11945 50  0000 L CNN
F 1 "100k" H 18930 11885 50  0000 L CNN
F 2 "Resistors_SMD:R_0402_NoSilk" H 18900 11925 50  0001 C CNN
F 3 "" H 18900 11925 50  0001 C CNN
	1    18900 11925
	1    0    0    -1  
$EndComp
$Comp
L R_Small R26
U 1 1 59401588
P 20225 11325
F 0 "R26" H 20255 11345 50  0000 L CNN
F 1 "210k" H 20255 11285 50  0000 L CNN
F 2 "Resistors_SMD:R_0402_NoSilk" H 20225 11325 50  0001 C CNN
F 3 "" H 20225 11325 50  0001 C CNN
	1    20225 11325
	0    -1   -1   0   
$EndComp
$Comp
L C_Small C23
U 1 1 59401701
P 18900 11575
F 0 "C23" H 18910 11645 50  0000 L CNN
F 1 "150pF" H 18910 11495 50  0000 L CNN
F 2 "Capacitors_SMD:C_0402_NoSilk" H 18900 11575 50  0001 C CNN
F 3 "" H 18900 11575 50  0001 C CNN
	1    18900 11575
	1    0    0    -1  
$EndComp
$Comp
L C_Small C20
U 1 1 594017E2
P 17475 10875
F 0 "C20" H 17485 10945 50  0000 L CNN
F 1 "10uF, 50V" H 17485 10795 50  0000 L CNN
F 2 "Capacitors_SMD:C_1206" H 17475 10875 50  0001 C CNN
F 3 "" H 17475 10875 50  0001 C CNN
	1    17475 10875
	-1   0    0    1   
$EndComp
$Comp
L C_Small C22
U 1 1 59401889
P 18525 10825
F 0 "C22" H 18535 10895 50  0000 L CNN
F 1 "100nF" H 18535 10745 50  0000 L CNN
F 2 "Capacitors_SMD:C_0402_NoSilk" H 18525 10825 50  0001 C CNN
F 3 "" H 18525 10825 50  0001 C CNN
	1    18525 10825
	0    -1   -1   0   
$EndComp
$Comp
L C_Small C24
U 1 1 5940198D
P 19775 10925
F 0 "C24" H 19785 10995 50  0000 L CNN
F 1 "Tantal, 22uF, 6.3V" H 19785 10845 50  0000 C CNN
F 2 "Capacitors_SMD:C_1206" H 19775 10925 50  0001 C CNN
F 3 "" H 19775 10925 50  0001 C CNN
	1    19775 10925
	1    0    0    -1  
$EndComp
$Comp
L GND #PWR02
U 1 1 59401AB4
P 18300 12125
F 0 "#PWR02" H 18300 11875 50  0001 C CNN
F 1 "GND" H 18300 11975 50  0000 C CNN
F 2 "" H 18300 12125 50  0001 C CNN
F 3 "" H 18300 12125 50  0001 C CNN
	1    18300 12125
	1    0    0    -1  
$EndComp
$Comp
L GND #PWR03
U 1 1 59401B5E
P 17700 12125
F 0 "#PWR03" H 17700 11875 50  0001 C CNN
F 1 "GND" H 17700 11975 50  0000 C CNN
F 2 "" H 17700 12125 50  0001 C CNN
F 3 "" H 17700 12125 50  0001 C CNN
	1    17700 12125
	1    0    0    -1  
$EndComp
$Comp
L GND #PWR04
U 1 1 5940364F
P 20000 12125
F 0 "#PWR04" H 20000 11875 50  0001 C CNN
F 1 "GND" H 20000 11975 50  0000 C CNN
F 2 "" H 20000 12125 50  0001 C CNN
F 3 "" H 20000 12125 50  0001 C CNN
	1    20000 12125
	1    0    0    -1  
$EndComp
$Comp
L L L1
U 1 1 59403D03
P 19425 10825
F 0 "L1" V 19375 10825 50  0000 C CNN
F 1 "15uH" V 19500 10825 50  0000 C CNN
F 2 "Inductors_local:Inductor_Bourns-SRN8040TA" H 19425 10825 50  0001 C CNN
F 3 "" H 19425 10825 50  0001 C CNN
	1    19425 10825
	0    1    1    0   
$EndComp
$Comp
L GND #PWR05
U 1 1 5940569F
P 18900 12125
F 0 "#PWR05" H 18900 11875 50  0001 C CNN
F 1 "GND" H 18900 11975 50  0000 C CNN
F 2 "" H 18900 12125 50  0001 C CNN
F 3 "" H 18900 12125 50  0001 C CNN
	1    18900 12125
	1    0    0    -1  
$EndComp
$Comp
L GNDREF #PWR06
U 1 1 59407CCE
P 18575 12125
F 0 "#PWR06" H 18575 11875 50  0001 C CNN
F 1 "GNDREF" H 18575 11975 50  0000 C CNN
F 2 "" H 18575 12125 50  0001 C CNN
F 3 "" H 18575 12125 50  0001 C CNN
	1    18575 12125
	1    0    0    -1  
$EndComp
$Comp
L GNDREF #PWR07
U 1 1 5940837B
P 17475 10550
F 0 "#PWR07" H 17475 10300 50  0001 C CNN
F 1 "GNDREF" H 17475 10400 50  0000 C CNN
F 2 "" H 17475 10550 50  0001 C CNN
F 3 "" H 17475 10550 50  0001 C CNN
	1    17475 10550
	-1   0    0    1   
$EndComp
$Comp
L GNDREF #PWR08
U 1 1 5940855C
P 19050 11125
F 0 "#PWR08" H 19050 10875 50  0001 C CNN
F 1 "GNDREF" H 19050 10975 50  0000 C CNN
F 2 "" H 19050 11125 50  0001 C CNN
F 3 "" H 19050 11125 50  0001 C CNN
	1    19050 11125
	1    0    0    -1  
$EndComp
$Comp
L GNDREF #PWR09
U 1 1 594087AA
P 19775 11125
F 0 "#PWR09" H 19775 10875 50  0001 C CNN
F 1 "GNDREF" H 19775 10975 50  0000 C CNN
F 2 "" H 19775 11125 50  0001 C CNN
F 3 "" H 19775 11125 50  0001 C CNN
	1    19775 11125
	1    0    0    -1  
$EndComp
$Comp
L GND #PWR010
U 1 1 5940B2AC
P 16925 12125
F 0 "#PWR010" H 16925 11875 50  0001 C CNN
F 1 "GND" H 16925 11975 50  0000 C CNN
F 2 "" H 16925 12125 50  0001 C CNN
F 3 "" H 16925 12125 50  0001 C CNN
	1    16925 12125
	1    0    0    -1  
$EndComp
Text Notes 18500 10250 0    99   ~ 0
5V Regulator
Text Notes 18775 12775 0    99   ~ 0
3.3V Regulator
$Comp
L R_Small R27
U 1 1 59428160
P 20475 11075
F 0 "R27" H 20505 11095 50  0000 L CNN
F 1 "330R" H 20505 11035 50  0000 L CNN
F 2 "Resistors_SMD:R_0402_NoSilk" H 20475 11075 50  0001 C CNN
F 3 "" H 20475 11075 50  0001 C CNN
	1    20475 11075
	1    0    0    -1  
$EndComp
$Comp
L LED_Small D5
U 1 1 594281FA
P 20475 11425
F 0 "D5" H 20425 11550 50  0000 L CNN
F 1 "2V, Orange" H 20300 11325 50  0000 L CNN
F 2 "LEDs:LED_0603" V 20475 11425 50  0001 C CNN
F 3 "" V 20475 11425 50  0001 C CNN
	1    20475 11425
	0    -1   -1   0   
$EndComp
$Comp
L GND #PWR011
U 1 1 5942841A
P 20475 11675
F 0 "#PWR011" H 20475 11425 50  0001 C CNN
F 1 "GND" H 20475 11525 50  0000 C CNN
F 2 "" H 20475 11675 50  0001 C CNN
F 3 "" H 20475 11675 50  0001 C CNN
	1    20475 11675
	1    0    0    -1  
$EndComp
$Comp
L STM32F722RETx U1
U 1 1 5A026D4A
P 9100 5300
F 0 "U1" H 8000 7025 50  0000 L BNN
F 1 "STM32F722RETx" H 10200 7025 50  0000 R BNN
F 2 "Housings_QFP:LQFP-64_10x10mm_Pitch0.5mm" H 9100 3350 50  0001 C TNN
F 3 "C:\\Users\\IchWerSonst\\Documents\\Hobby--Projekte\\QUADCOPTER\\diyFlightcontroller\\stm32f722_Datasheet.pdf" H 9100 5300 50  0001 C CNN
	1    9100 5300
	1    0    0    -1  
$EndComp
$Comp
L +3.3V #PWR012
U 1 1 5A18967D
P 20675 13625
F 0 "#PWR012" H 20675 13475 50  0001 C CNN
F 1 "+3.3V" H 20675 13765 50  0000 C CNN
F 2 "" H 20675 13625 50  0001 C CNN
F 3 "" H 20675 13625 50  0001 C CNN
	1    20675 13625
	0    1    1    0   
$EndComp
$Comp
L C_Small C21
U 1 1 5A189882
P 18575 13975
F 0 "C21" H 18585 14045 50  0000 L CNN
F 1 "4.7uF" H 18585 13895 50  0000 L CNN
F 2 "Capacitors_SMD:C_0603" H 18575 13975 50  0001 C CNN
F 3 "" H 18575 13975 50  0001 C CNN
	1    18575 13975
	1    0    0    -1  
$EndComp
$Comp
L C_Small C25
U 1 1 5A18B9CA
P 19875 13975
F 0 "C25" H 19885 14045 50  0000 L CNN
F 1 "4.7uF" H 19885 13895 50  0000 L CNN
F 2 "Capacitors_SMD:C_0603" H 19875 13975 50  0001 C CNN
F 3 "" H 19875 13975 50  0001 C CNN
	1    19875 13975
	1    0    0    -1  
$EndComp
$Comp
L R_Small R19
U 1 1 5A3EDCCA
P 20400 13875
F 0 "R19" H 20430 13895 50  0000 L CNN
F 1 "130R" H 20430 13835 50  0000 L CNN
F 2 "Resistors_SMD:R_0402_NoSilk" H 20400 13875 50  0001 C CNN
F 3 "" H 20400 13875 50  0001 C CNN
	1    20400 13875
	1    0    0    -1  
$EndComp
$Comp
L LED_Small D2
U 1 1 5A3EDCD0
P 20400 14225
F 0 "D2" H 20350 14350 50  0000 L CNN
F 1 "2.1V, Yellow" H 20225 14125 50  0000 L CNN
F 2 "LEDs:LED_0603" V 20400 14225 50  0001 C CNN
F 3 "" V 20400 14225 50  0001 C CNN
	1    20400 14225
	0    -1   -1   0   
$EndComp
$Comp
L GND #PWR013
U 1 1 5A3EDCD6
P 20400 14475
F 0 "#PWR013" H 20400 14225 50  0001 C CNN
F 1 "GND" H 20400 14325 50  0000 C CNN
F 2 "" H 20400 14475 50  0001 C CNN
F 3 "" H 20400 14475 50  0001 C CNN
	1    20400 14475
	1    0    0    -1  
$EndComp
$Comp
L C_Small C17
U 1 1 5A3F6C83
P 14550 1950
F 0 "C17" H 14560 2020 50  0000 L CNN
F 1 "4.7uF" H 14560 1870 50  0000 L CNN
F 2 "Capacitors_SMD:C_0603" H 14550 1950 50  0001 C CNN
F 3 "" H 14550 1950 50  0001 C CNN
	1    14550 1950
	1    0    0    -1  
$EndComp
$Comp
L C_Small C12
U 1 1 5A3F7247
P 13050 1950
F 0 "C12" H 13060 2020 50  0000 L CNN
F 1 "100nF" H 13060 1870 50  0000 L CNN
F 2 "Capacitors_SMD:C_0402_NoSilk" H 13050 1950 50  0001 C CNN
F 3 "" H 13050 1950 50  0001 C CNN
	1    13050 1950
	1    0    0    -1  
$EndComp
$Comp
L C_Small C14
U 1 1 5A3F74F6
P 13350 1950
F 0 "C14" H 13360 2020 50  0000 L CNN
F 1 "100nF" H 13360 1870 50  0000 L CNN
F 2 "Capacitors_SMD:C_0402_NoSilk" H 13350 1950 50  0001 C CNN
F 3 "" H 13350 1950 50  0001 C CNN
	1    13350 1950
	1    0    0    -1  
$EndComp
$Comp
L C_Small C16
U 1 1 5A3F74FC
P 13950 1950
F 0 "C16" H 13960 2020 50  0000 L CNN
F 1 "100nF" H 13960 1870 50  0000 L CNN
F 2 "Capacitors_SMD:C_0402_NoSilk" H 13950 1950 50  0001 C CNN
F 3 "" H 13950 1950 50  0001 C CNN
	1    13950 1950
	1    0    0    -1  
$EndComp
$Comp
L C_Small C15
U 1 1 5A3F9765
P 13650 1950
F 0 "C15" H 13660 2020 50  0000 L CNN
F 1 "100nF" H 13660 1870 50  0000 L CNN
F 2 "Capacitors_SMD:C_0402_NoSilk" H 13650 1950 50  0001 C CNN
F 3 "" H 13650 1950 50  0001 C CNN
	1    13650 1950
	1    0    0    -1  
$EndComp
$Comp
L C_Small C19
U 1 1 5A3FA36D
P 15600 1950
F 0 "C19" H 15610 2020 50  0000 L CNN
F 1 "1uF" H 15610 1870 50  0000 L CNN
F 2 "Capacitors_SMD:C_0603" H 15600 1950 50  0001 C CNN
F 3 "" H 15600 1950 50  0001 C CNN
	1    15600 1950
	1    0    0    -1  
$EndComp
$Comp
L +3.3V #PWR014
U 1 1 5A3FAE5F
P 11950 1750
F 0 "#PWR014" H 11950 1600 50  0001 C CNN
F 1 "+3.3V" H 11950 1890 50  0000 C CNN
F 2 "" H 11950 1750 50  0001 C CNN
F 3 "" H 11950 1750 50  0001 C CNN
	1    11950 1750
	1    0    0    -1  
$EndComp
$Comp
L GND #PWR015
U 1 1 5A3FAE65
P 11950 2150
F 0 "#PWR015" H 11950 1900 50  0001 C CNN
F 1 "GND" H 11950 2000 50  0000 C CNN
F 2 "" H 11950 2150 50  0001 C CNN
F 3 "" H 11950 2150 50  0001 C CNN
	1    11950 2150
	1    0    0    -1  
$EndComp
$Comp
L C_Small C11
U 1 1 5A3FAE6C
P 11950 1950
F 0 "C11" H 11960 2020 50  0000 L CNN
F 1 "100nF" H 11960 1870 50  0000 L CNN
F 2 "Capacitors_SMD:C_0402_NoSilk" H 11950 1950 50  0001 C CNN
F 3 "" H 11950 1950 50  0001 C CNN
	1    11950 1950
	1    0    0    -1  
$EndComp
$Comp
L GND #PWR016
U 1 1 5A3FC946
P 9100 7500
F 0 "#PWR016" H 9100 7250 50  0001 C CNN
F 1 "GND" H 9100 7350 50  0000 C CNN
F 2 "" H 9100 7500 50  0001 C CNN
F 3 "" H 9100 7500 50  0001 C CNN
	1    9100 7500
	1    0    0    -1  
$EndComp
$Comp
L C_Small C3
U 1 1 5A41374C
P 7350 4600
F 0 "C3" H 7360 4670 50  0000 L CNN
F 1 "4.7uF, 0.1-0.2Ohm" H 7360 4520 50  0000 L CNN
F 2 "Capacitors_SMD:C_0402_NoSilk" H 7350 4600 50  0001 C CNN
F 3 "" H 7350 4600 50  0001 C CNN
	1    7350 4600
	0    -1   -1   0   
$EndComp
$Comp
L GND #PWR017
U 1 1 5A413DC8
P 7050 4600
F 0 "#PWR017" H 7050 4350 50  0001 C CNN
F 1 "GND" H 7050 4450 50  0000 C CNN
F 2 "" H 7050 4600 50  0001 C CNN
F 3 "" H 7050 4600 50  0001 C CNN
	1    7050 4600
	0    1    1    0   
$EndComp
$Comp
L C_Small C1
U 1 1 5A479552
P 5800 4950
F 0 "C1" H 5810 5020 50  0000 L CNN
F 1 "25pF" H 5810 4870 50  0000 L CNN
F 2 "Capacitors_SMD:C_0603" H 5800 4950 50  0001 C CNN
F 3 "https://www.mouser.ch/ProductDetail/AVX/06035A250GAT2A?qs=sGAEpiMZZMsh%252b1woXyUXj0RdXwX7JJ9vNFYnYiGHcR0%3d" H 5800 4950 50  0001 C CNN
	1    5800 4950
	0    -1   -1   0   
$EndComp
$Comp
L C_Small C2
U 1 1 5A4795EC
P 5800 5150
F 0 "C2" H 5810 5220 50  0000 L CNN
F 1 "25pF" H 5810 5070 50  0000 L CNN
F 2 "Capacitors_SMD:C_0603" H 5800 5150 50  0001 C CNN
F 3 "https://www.mouser.ch/ProductDetail/AVX/06035A250GAT2A?qs=sGAEpiMZZMsh%252b1woXyUXj0RdXwX7JJ9vNFYnYiGHcR0%3d" H 5800 5150 50  0001 C CNN
	1    5800 5150
	0    -1   -1   0   
$EndComp
Text GLabel 3300 1150 2    47   Output ~ 0
VUSB
$Comp
L D_Schottky_Small D7
U 1 1 5A47C55D
P 21875 11200
F 0 "D7" H 21825 11280 50  0000 L CNN
F 1 "1.5A, 0.46V" H 21595 11120 50  0000 L CNN
F 2 "Diodes_SMD:D_TUMD2" V 21875 11200 50  0001 C CNN
F 3 "https://www.mouser.ch/datasheet/2/348/rsx201vam30tr-e-1139001.pdf" V 21875 11200 50  0001 C CNN
	1    21875 11200
	0    -1   -1   0   
$EndComp
$Comp
L D_Schottky_Small D8
U 1 1 5A47C8F1
P 22175 11200
F 0 "D8" H 22125 11280 50  0000 L CNN
F 1 "1.5A, 0.46V" H 21895 11120 50  0000 L CNN
F 2 "Diodes_SMD:D_TUMD2" V 22175 11200 50  0001 C CNN
F 3 "https://www.mouser.ch/datasheet/2/348/rsx201vam30tr-e-1139001.pdf" V 22175 11200 50  0001 C CNN
	1    22175 11200
	0    -1   -1   0   
$EndComp
$Comp
L +5V #PWR018
U 1 1 5A47D253
P 20975 11025
F 0 "#PWR018" H 20975 10875 50  0001 C CNN
F 1 "+5V" H 20975 11165 50  0000 C CNN
F 2 "" H 20975 11025 50  0001 C CNN
F 3 "" H 20975 11025 50  0001 C CNN
	1    20975 11025
	-1   0    0    1   
$EndComp
Text GLabel 22175 10650 1    60   Input ~ 0
VUSB
$Comp
L GND #PWR019
U 1 1 5A4B6958
P 5550 4400
F 0 "#PWR019" H 5550 4150 50  0001 C CNN
F 1 "GND" H 5550 4250 50  0000 C CNN
F 2 "" H 5550 4400 50  0001 C CNN
F 3 "" H 5550 4400 50  0001 C CNN
	1    5550 4400
	0    1    1    0   
$EndComp
$Comp
L +3.3V #PWR020
U 1 1 5A4B6D76
P 5550 4200
F 0 "#PWR020" H 5550 4050 50  0001 C CNN
F 1 "+3.3V" H 5550 4340 50  0000 C CNN
F 2 "" H 5550 4200 50  0001 C CNN
F 3 "" H 5550 4200 50  0001 C CNN
	1    5550 4200
	0    -1   -1   0   
$EndComp
$Comp
L GS3 J6
U 1 1 5A4BFBB1
P 11400 4800
F 0 "J6" H 11450 5000 50  0000 C CNN
F 1 "GS3" H 11450 4601 50  0000 C CNN
F 2 "Connectors:GS3" V 11488 4726 50  0001 C CNN
F 3 "" H 11400 4800 50  0001 C CNN
	1    11400 4800
	-1   0    0    1   
$EndComp
Text Label 6750 4000 0    60   ~ 0
RESET
Text Label 10750 5000 2    60   ~ 0
SWDIO
Text Label 10750 5100 2    60   ~ 0
SWCLK
Text Label 11050 4900 2    60   ~ 0
USB_D+
Text Label 11050 4800 2    60   ~ 0
USB_D-
Text Label 11950 4900 2    60   ~ 0
USB_ID
Text Label 3225 3275 2    60   ~ 0
USB_D+
Text Label 3225 3375 2    60   ~ 0
USB_D-
Text Label 3225 3475 2    60   ~ 0
USB_ID
$Comp
L R_Small R12
U 1 1 5A4CFD12
P 13075 11675
F 0 "R12" H 13105 11695 50  0000 L CNN
F 1 "10k" H 13105 11635 50  0000 L CNN
F 2 "Resistors_SMD:R_0402_NoSilk" H 13075 11675 50  0001 C CNN
F 3 "" H 13075 11675 50  0001 C CNN
	1    13075 11675
	1    0    0    -1  
$EndComp
$Comp
L +3.3V #PWR021
U 1 1 5A4D0715
P 13275 11375
F 0 "#PWR021" H 13275 11225 50  0001 C CNN
F 1 "+3.3V" H 13275 11515 50  0000 C CNN
F 2 "" H 13275 11375 50  0001 C CNN
F 3 "" H 13275 11375 50  0001 C CNN
	1    13275 11375
	1    0    0    -1  
$EndComp
Text Label 10750 6200 2    60   ~ 0
CAN1_RX
Text Label 10750 6300 2    60   ~ 0
CAN1_TX
Text Label 13750 12125 2    60   ~ 0
BARO_SCL
Text Label 13750 12325 2    60   ~ 0
BARO_SDA
$Comp
L R_Small R13
U 1 1 5A4D57A1
P 13275 11675
F 0 "R13" H 13305 11695 50  0000 L CNN
F 1 "10k" H 13305 11635 50  0000 L CNN
F 2 "Resistors_SMD:R_0402_NoSilk" H 13275 11675 50  0001 C CNN
F 3 "" H 13275 11675 50  0001 C CNN
	1    13275 11675
	1    0    0    -1  
$EndComp
Text Label 7450 5500 0    60   ~ 0
VOLT_DIV
$Comp
L GND #PWR022
U 1 1 5A4E7043
P 2625 8675
F 0 "#PWR022" H 2625 8425 50  0001 C CNN
F 1 "GND" H 2625 8525 50  0000 C CNN
F 2 "" H 2625 8675 50  0001 C CNN
F 3 "" H 2625 8675 50  0001 C CNN
	1    2625 8675
	1    0    0    -1  
$EndComp
Text Label 16475 11050 0    60   ~ 0
LIPO+
Text Label 16475 11225 0    60   ~ 0
LIPO-
$Comp
L R_Small R6
U 1 1 5A4E87BD
P 2625 8375
F 0 "R6" H 2655 8395 50  0000 L CNN
F 1 "1k" H 2655 8335 50  0000 L CNN
F 2 "Resistors_SMD:R_0805" H 2625 8375 50  0001 C CNN
F 3 "" H 2625 8375 50  0001 C CNN
	1    2625 8375
	-1   0    0    1   
$EndComp
$Comp
L R_Small R5
U 1 1 5A4E8BE6
P 2625 7875
F 0 "R5" H 2655 7895 50  0000 L CNN
F 1 "12k" H 2655 7835 50  0000 L CNN
F 2 "Resistors_SMD:R_0805" H 2625 7875 50  0001 C CNN
F 3 "" H 2625 7875 50  0001 C CNN
	1    2625 7875
	-1   0    0    1   
$EndComp
Text Label 2225 7275 0    60   ~ 0
LIPO+
Text Label 3175 8125 2    60   ~ 0
VOLT_DIV
Text Label 7450 5600 0    60   ~ 0
OSD_IN
$Comp
L ICM-20602 IC1
U 1 1 5A4EA0DA
P 8750 13350
F 0 "IC1" H 10000 14000 50  0000 L CNN
F 1 "ICM-20602" H 10000 12300 50  0000 L CNN
F 2 "ICM-20602:QFN50P300X300X80-16N" H 10000 12200 50  0001 L CNN
F 3 "https://www.invensense.com/wp-content/uploads/2016/10/DS-000176-ICM-20602-v1.0.pdf" H 10000 12100 50  0001 L CNN
F 4 "Multiple Function Sensor Modules Low-Power, High-Performance Integrated 6-Axis MEMS MotionTracking  Device in 3mm x 3mm Package" H 10000 12000 50  0001 L CNN "Description"
F 5 "RS" H 10000 11900 50  0001 C CNN "Supplier_Name"
F 6 "" H 10000 11800 50  0001 C CNN "RS Part Number"
F 7 "TDK InvenSense" H 10000 11700 50  0001 C CNN "Manufacturer_Name"
F 8 "ICM-20602" H 10000 11600 50  0001 C CNN "Manufacturer_Part_Number"
F 9 "" H 10000 11500 50  0001 C CNN "Allied_Number"
F 10 "" H 10000 11400 50  0001 C CNN "Other Part Number"
F 11 "0.8" H 10000 11300 50  0001 C CNN "Height"
	1    8750 13350
	1    0    0    -1  
$EndComp
$Comp
L GND #PWR023
U 1 1 5A4EB5A7
P 8950 12000
F 0 "#PWR023" H 8950 11750 50  0001 C CNN
F 1 "GND" H 8950 11850 50  0000 C CNN
F 2 "" H 8950 12000 50  0001 C CNN
F 3 "" H 8950 12000 50  0001 C CNN
	1    8950 12000
	-1   0    0    1   
$EndComp
$Comp
L C_Small C6
U 1 1 5A4EB955
P 9150 12150
F 0 "C6" H 9160 12220 50  0000 L CNN
F 1 "100nF" H 9160 12070 50  0000 L CNN
F 2 "Capacitors_SMD:C_0402_NoSilk" H 9150 12150 50  0001 C CNN
F 3 "" H 9150 12150 50  0001 C CNN
	1    9150 12150
	0    -1   -1   0   
$EndComp
$Comp
L C_Small C7
U 1 1 5A4EBA2B
P 9150 12450
F 0 "C7" H 9160 12520 50  0000 L CNN
F 1 "2.2uF" H 9160 12370 50  0000 L CNN
F 2 "Capacitors_SMD:C_0603" H 9150 12450 50  0001 C CNN
F 3 "" H 9150 12450 50  0001 C CNN
	1    9150 12450
	0    -1   -1   0   
$EndComp
$Comp
L GND #PWR024
U 1 1 5A4ECC7B
P 8000 12950
F 0 "#PWR024" H 8000 12700 50  0001 C CNN
F 1 "GND" H 8000 12800 50  0000 C CNN
F 2 "" H 8000 12950 50  0001 C CNN
F 3 "" H 8000 12950 50  0001 C CNN
	1    8000 12950
	-1   0    0    1   
$EndComp
$Comp
L C_Small C5
U 1 1 5A4ED7F5
P 8200 13150
F 0 "C5" H 8210 13220 50  0000 L CNN
F 1 "10nF" H 8210 13070 50  0000 L CNN
F 2 "Capacitors_SMD:C_0402_NoSilk" H 8200 13150 50  0001 C CNN
F 3 "" H 8200 13150 50  0001 C CNN
	1    8200 13150
	0    -1   -1   0   
$EndComp
$Comp
L GND #PWR025
U 1 1 5A4EDCD0
P 9800 12000
F 0 "#PWR025" H 9800 11750 50  0001 C CNN
F 1 "GND" H 9800 11850 50  0000 C CNN
F 2 "" H 9800 12000 50  0001 C CNN
F 3 "" H 9800 12000 50  0001 C CNN
	1    9800 12000
	-1   0    0    1   
$EndComp
$Comp
L C_Small C8
U 1 1 5A4EED0C
P 10150 12150
F 0 "C8" H 10160 12220 50  0000 L CNN
F 1 "100nF" H 10160 12070 50  0000 L CNN
F 2 "Capacitors_SMD:C_0402_NoSilk" H 10150 12150 50  0001 C CNN
F 3 "" H 10150 12150 50  0001 C CNN
	1    10150 12150
	1    0    0    -1  
$EndComp
$Comp
L GND #PWR026
U 1 1 5A4EEDD9
P 10150 12000
F 0 "#PWR026" H 10150 11750 50  0001 C CNN
F 1 "GND" H 10150 11850 50  0000 C CNN
F 2 "" H 10150 12000 50  0001 C CNN
F 3 "" H 10150 12000 50  0001 C CNN
	1    10150 12000
	-1   0    0    1   
$EndComp
$Comp
L GND #PWR027
U 1 1 5A4EF637
P 10450 13950
F 0 "#PWR027" H 10450 13700 50  0001 C CNN
F 1 "GND" H 10450 13800 50  0000 C CNN
F 2 "" H 10450 13950 50  0001 C CNN
F 3 "" H 10450 13950 50  0001 C CNN
	1    10450 13950
	1    0    0    -1  
$EndComp
$Comp
L GND #PWR028
U 1 1 5A4F0EC8
P 9550 14700
F 0 "#PWR028" H 9550 14450 50  0001 C CNN
F 1 "GND" H 9550 14550 50  0000 C CNN
F 2 "" H 9550 14700 50  0001 C CNN
F 3 "" H 9550 14700 50  0001 C CNN
	1    9550 14700
	1    0    0    -1  
$EndComp
NoConn ~ 9450 14550
Text Label 9350 15200 1    60   ~ 0
GYRO_INT
Text Label 6850 6900 0    60   ~ 0
GYRO_INT
Text Label 11350 6700 2    60   ~ 0
GYRO_SCK
Text Label 11350 6600 2    60   ~ 0
GYRO_CS
Text Label 6850 5700 0    60   ~ 0
GYRO_MISO
Text Label 6850 5800 0    60   ~ 0
GYRO_MOSI
Text Label 7950 13450 0    60   ~ 0
GYRO_SCK
Text Label 7950 13550 0    60   ~ 0
GYRO_MOSI
Text Label 7950 13650 0    60   ~ 0
GYRO_MISO
Text Label 7950 13750 0    60   ~ 0
GYRO_CS
$Comp
L GND #PWR029
U 1 1 5A5E735E
P 19225 14475
F 0 "#PWR029" H 19225 14225 50  0001 C CNN
F 1 "GND" H 19225 14325 50  0000 C CNN
F 2 "" H 19225 14475 50  0001 C CNN
F 3 "" H 19225 14475 50  0001 C CNN
	1    19225 14475
	1    0    0    -1  
$EndComp
$Comp
L Micro_SD_Card J5
U 1 1 5A60EA4E
P 3875 13075
F 0 "J5" H 3225 13675 50  0000 C CNN
F 1 "Micro_SD_Card" H 4525 13675 50  0000 R CNN
F 2 "SD_Card_Connectors:MicroSD_Connector-693072010801-WE" H 5025 13375 50  0001 C CNN
F 3 "https://www.mouser.ch/datasheet/2/445/693072010801-336093.pdf" H 3875 13075 50  0001 C CNN
	1    3875 13075
	1    0    0    -1  
$EndComp
$Comp
L GND #PWR030
U 1 1 5A60F309
P 4825 13825
F 0 "#PWR030" H 4825 13575 50  0001 C CNN
F 1 "GND" H 4825 13675 50  0000 C CNN
F 2 "" H 4825 13825 50  0001 C CNN
F 3 "" H 4825 13825 50  0001 C CNN
	1    4825 13825
	1    0    0    -1  
$EndComp
$Comp
L GND #PWR031
U 1 1 5A60F4E5
P 2775 13825
F 0 "#PWR031" H 2775 13575 50  0001 C CNN
F 1 "GND" H 2775 13675 50  0000 C CNN
F 2 "" H 2775 13825 50  0001 C CNN
F 3 "" H 2775 13825 50  0001 C CNN
	1    2775 13825
	1    0    0    -1  
$EndComp
NoConn ~ 2975 12775
NoConn ~ 2975 13475
$Comp
L +3.3V #PWR032
U 1 1 5A60F95F
P 2775 12375
F 0 "#PWR032" H 2775 12225 50  0001 C CNN
F 1 "+3.3V" H 2775 12515 50  0000 C CNN
F 2 "" H 2775 12375 50  0001 C CNN
F 3 "" H 2775 12375 50  0001 C CNN
	1    2775 12375
	1    0    0    -1  
$EndComp
Text Label 1875 12975 0    60   ~ 0
SD_MOSI
Text Label 1875 13175 0    60   ~ 0
SD_SCK
Text Label 1875 13375 0    60   ~ 0
SD_MISO
Text Label 1875 12875 0    60   ~ 0
SD_CS
Text Label 19700 2600 0    60   ~ 0
LED1
Text Label 20650 2600 0    60   ~ 0
LED2
Text Label 7450 6700 0    60   ~ 0
LED1
Text Notes 20125 1300 0    99   ~ 0
LEDs
Text Notes 12200 11025 0    99   ~ 0
Barometer
Text Notes 9125 11025 0    99   ~ 0
Gyro/Accel
Text Notes 3200 12000 0    99   ~ 0
SD-Card
Text Notes 2250 7000 0    99   ~ 0
Voltage Divider
Text Notes 2175 1025 0    99   ~ 0
USB
Text Notes 8550 2700 0    99   ~ 0
Microcontroller
$Comp
L R_Small R11
U 1 1 5A64F498
P 6800 4300
F 0 "R11" H 6830 4320 50  0000 L CNN
F 1 "10k" H 6830 4260 50  0000 L CNN
F 2 "Resistors_SMD:R_0402_NoSilk" H 6800 4300 50  0001 C CNN
F 3 "" H 6800 4300 50  0001 C CNN
	1    6800 4300
	0    1    1    0   
$EndComp
$Comp
L R_Small R1
U 1 1 5A651981
P 2350 3275
F 0 "R1" H 2380 3295 50  0000 L CNN
F 1 "0/22R" H 2380 3235 50  0000 L CNN
F 2 "Resistors_SMD:R_0402_NoSilk" H 2350 3275 50  0001 C CNN
F 3 "" H 2350 3275 50  0001 C CNN
	1    2350 3275
	0    1    1    0   
$EndComp
$Comp
L R_Small R4
U 1 1 5A651DAB
P 2550 3375
F 0 "R4" H 2580 3395 50  0000 L CNN
F 1 "0/22R" H 2580 3335 50  0000 L CNN
F 2 "Resistors_SMD:R_0402_NoSilk" H 2550 3375 50  0001 C CNN
F 3 "" H 2550 3375 50  0001 C CNN
	1    2550 3375
	0    1    1    0   
$EndComp
$Comp
L R_Small R8
U 1 1 5A651EE7
P 2750 3475
F 0 "R8" H 2780 3495 50  0000 L CNN
F 1 "0R" H 2780 3435 50  0000 L CNN
F 2 "Resistors_SMD:R_0402_NoSilk" H 2750 3475 50  0001 C CNN
F 3 "" H 2750 3475 50  0001 C CNN
	1    2750 3475
	0    1    1    0   
$EndComp
Text Notes 18750 9425 0    99   ~ 20
Power
Text Notes 10825 10450 0    99   ~ 20
Sensors
$Comp
L +3.3V #PWR033
U 1 1 5A64965E
P 9050 3300
F 0 "#PWR033" H 9050 3150 50  0001 C CNN
F 1 "+3.3V" H 9050 3440 50  0000 C CNN
F 2 "" H 9050 3300 50  0001 C CNN
F 3 "" H 9050 3300 50  0001 C CNN
	1    9050 3300
	1    0    0    -1  
$EndComp
Text Notes 11375 1375 0    99   ~ 0
VBAT decoupling
Text Notes 13025 1375 0    99   ~ 0
VDD decoupling
$Comp
L +3.3V #PWR034
U 1 1 5A650E95
P 13650 1750
F 0 "#PWR034" H 13650 1600 50  0001 C CNN
F 1 "+3.3V" H 13650 1890 50  0000 C CNN
F 2 "" H 13650 1750 50  0001 C CNN
F 3 "" H 13650 1750 50  0001 C CNN
	1    13650 1750
	1    0    0    -1  
$EndComp
$Comp
L GND #PWR035
U 1 1 5A650E9B
P 13650 2150
F 0 "#PWR035" H 13650 1900 50  0001 C CNN
F 1 "GND" H 13650 2000 50  0000 C CNN
F 2 "" H 13650 2150 50  0001 C CNN
F 3 "" H 13650 2150 50  0001 C CNN
	1    13650 2150
	1    0    0    -1  
$EndComp
Text Notes 14875 1400 0    99   ~ 0
VDDA decoupling
$Comp
L +3.3V #PWR036
U 1 1 5A654323
P 15450 1750
F 0 "#PWR036" H 15450 1600 50  0001 C CNN
F 1 "+3.3V" H 15450 1890 50  0000 C CNN
F 2 "" H 15450 1750 50  0001 C CNN
F 3 "" H 15450 1750 50  0001 C CNN
	1    15450 1750
	1    0    0    -1  
$EndComp
$Comp
L GND #PWR037
U 1 1 5A654329
P 15450 2150
F 0 "#PWR037" H 15450 1900 50  0001 C CNN
F 1 "GND" H 15450 2000 50  0000 C CNN
F 2 "" H 15450 2150 50  0001 C CNN
F 3 "" H 15450 2150 50  0001 C CNN
	1    15450 2150
	1    0    0    -1  
$EndComp
$Comp
L C_Small C18
U 1 1 5A654A9F
P 15300 1950
F 0 "C18" H 15310 2020 50  0000 L CNN
F 1 "100nF" H 15310 1870 50  0000 L CNN
F 2 "Capacitors_SMD:C_0402_NoSilk" H 15300 1950 50  0001 C CNN
F 3 "" H 15300 1950 50  0001 C CNN
	1    15300 1950
	1    0    0    -1  
$EndComp
Text Notes 13250 900  0    99   ~ 20
Decoupling
$Comp
L GND #PWR038
U 1 1 5A656FEB
P 5550 4950
F 0 "#PWR038" H 5550 4700 50  0001 C CNN
F 1 "GND" H 5550 4800 50  0000 C CNN
F 2 "" H 5550 4950 50  0001 C CNN
F 3 "" H 5550 4950 50  0001 C CNN
	1    5550 4950
	0    1    1    0   
$EndComp
$Comp
L GND #PWR039
U 1 1 5A6570D7
P 5550 5150
F 0 "#PWR039" H 5550 4900 50  0001 C CNN
F 1 "GND" H 5550 5000 50  0000 C CNN
F 2 "" H 5550 5150 50  0001 C CNN
F 3 "" H 5550 5150 50  0001 C CNN
	1    5550 5150
	0    1    1    0   
$EndComp
$Comp
L SW_DPDT_x2 SW1
U 1 1 5A657549
P 6325 4300
F 0 "SW1" H 6325 4470 50  0000 C CNN
F 1 "SW_DPDT_x2" H 6325 4100 50  0000 C CNN
F 2 "Switches:Switch_SPDT_SMD-PCM12SMTR" H 6325 4300 50  0001 C CNN
F 3 "" H 6325 4300 50  0001 C CNN
	1    6325 4300
	-1   0    0    1   
$EndComp
Text Label 7150 6500 0    60   ~ 0
ESC_Telemetry
$Comp
L CONN_01X01 J25
U 1 1 5A9713CF
P 21700 5125
F 0 "J25" H 21700 5225 50  0000 C CNN
F 1 "CONN_01X01" V 21800 5125 50  0000 C CNN
F 2 "Pin_Headers:Pin_Header_Straight_1x01_Pitch2.00mm" H 21700 5125 50  0001 C CNN
F 3 "" H 21700 5125 50  0001 C CNN
	1    21700 5125
	1    0    0    -1  
$EndComp
Text Notes 17050 4300 0    99   ~ 20
Pins/Pads
Text Label 20750 5125 0    60   ~ 0
ESC_Telemetry
$Comp
L CONN_01X01 J26
U 1 1 5A978564
P 21700 5600
F 0 "J26" H 21700 5700 50  0000 C CNN
F 1 "CONN_01X01" V 21800 5600 50  0000 C CNN
F 2 "Pin_Headers:Pin_Header_Straight_1x01_Pitch2.00mm" H 21700 5600 50  0001 C CNN
F 3 "" H 21700 5600 50  0001 C CNN
	1    21700 5600
	1    0    0    -1  
$EndComp
Text Label 20750 5600 0    60   ~ 0
ESC_Telemetry
$Comp
L CONN_01X01 J27
U 1 1 5A9788E4
P 21700 6075
F 0 "J27" H 21700 6175 50  0000 C CNN
F 1 "CONN_01X01" V 21800 6075 50  0000 C CNN
F 2 "Pin_Headers:Pin_Header_Straight_1x01_Pitch2.00mm" H 21700 6075 50  0001 C CNN
F 3 "" H 21700 6075 50  0001 C CNN
	1    21700 6075
	1    0    0    -1  
$EndComp
Text Label 20750 6075 0    60   ~ 0
ESC_Telemetry
$Comp
L CONN_01X01 J28
U 1 1 5A9788EC
P 21700 6550
F 0 "J28" H 21700 6650 50  0000 C CNN
F 1 "CONN_01X01" V 21800 6550 50  0000 C CNN
F 2 "Pin_Headers:Pin_Header_Straight_1x01_Pitch2.00mm" H 21700 6550 50  0001 C CNN
F 3 "" H 21700 6550 50  0001 C CNN
	1    21700 6550
	1    0    0    -1  
$EndComp
Text Label 20750 6550 0    60   ~ 0
ESC_Telemetry
Text Label 10550 3700 2    60   ~ 0
M1
Text Label 10550 3800 2    60   ~ 0
M2
Text Label 10550 3900 2    60   ~ 0
M3
Text Label 10550 4000 2    60   ~ 0
M4
$Comp
L CONN_01X01 J29
U 1 1 5A97C029
P 22425 5125
F 0 "J29" H 22425 5225 50  0000 C CNN
F 1 "CONN_01X01" V 22525 5125 50  0000 C CNN
F 2 "Pin_Headers:Pin_Header_Straight_1x01_Pitch2.00mm" H 22425 5125 50  0001 C CNN
F 3 "" H 22425 5125 50  0001 C CNN
	1    22425 5125
	1    0    0    -1  
$EndComp
$Comp
L CONN_01X01 J30
U 1 1 5A97C02F
P 22425 5600
F 0 "J30" H 22425 5700 50  0000 C CNN
F 1 "CONN_01X01" V 22525 5600 50  0000 C CNN
F 2 "Pin_Headers:Pin_Header_Straight_1x01_Pitch2.00mm" H 22425 5600 50  0001 C CNN
F 3 "" H 22425 5600 50  0001 C CNN
	1    22425 5600
	1    0    0    -1  
$EndComp
$Comp
L CONN_01X01 J31
U 1 1 5A97C035
P 22425 6075
F 0 "J31" H 22425 6175 50  0000 C CNN
F 1 "CONN_01X01" V 22525 6075 50  0000 C CNN
F 2 "Pin_Headers:Pin_Header_Straight_1x01_Pitch2.00mm" H 22425 6075 50  0001 C CNN
F 3 "" H 22425 6075 50  0001 C CNN
	1    22425 6075
	1    0    0    -1  
$EndComp
$Comp
L CONN_01X01 J32
U 1 1 5A97C03B
P 22425 6550
F 0 "J32" H 22425 6650 50  0000 C CNN
F 1 "CONN_01X01" V 22525 6550 50  0000 C CNN
F 2 "Pin_Headers:Pin_Header_Straight_1x01_Pitch2.00mm" H 22425 6550 50  0001 C CNN
F 3 "" H 22425 6550 50  0001 C CNN
	1    22425 6550
	1    0    0    -1  
$EndComp
Text Label 21975 5125 0    60   ~ 0
M1
Text Label 21975 5600 0    60   ~ 0
M2
Text Label 21975 6075 0    60   ~ 0
M3
Text Label 21975 6550 0    60   ~ 0
M4
$Comp
L CONN_01X01 J21
U 1 1 5A9CB3F8
P 20375 5125
F 0 "J21" H 20375 5225 50  0000 C CNN
F 1 "CONN_01X01" V 20475 5125 50  0000 C CNN
F 2 "Pin_Headers:Pin_Header_Straight_1x01_Pitch2.00mm" H 20375 5125 50  0001 C CNN
F 3 "" H 20375 5125 50  0001 C CNN
	1    20375 5125
	1    0    0    -1  
$EndComp
$Comp
L CONN_01X01 J22
U 1 1 5A9CB3FE
P 20375 5600
F 0 "J22" H 20375 5700 50  0000 C CNN
F 1 "CONN_01X01" V 20475 5600 50  0000 C CNN
F 2 "Pin_Headers:Pin_Header_Straight_1x01_Pitch2.00mm" H 20375 5600 50  0001 C CNN
F 3 "" H 20375 5600 50  0001 C CNN
	1    20375 5600
	1    0    0    -1  
$EndComp
$Comp
L CONN_01X01 J23
U 1 1 5A9CB404
P 20375 6075
F 0 "J23" H 20375 6175 50  0000 C CNN
F 1 "CONN_01X01" V 20475 6075 50  0000 C CNN
F 2 "Pin_Headers:Pin_Header_Straight_1x01_Pitch2.00mm" H 20375 6075 50  0001 C CNN
F 3 "" H 20375 6075 50  0001 C CNN
	1    20375 6075
	1    0    0    -1  
$EndComp
$Comp
L CONN_01X01 J24
U 1 1 5A9CB40A
P 20375 6550
F 0 "J24" H 20375 6650 50  0000 C CNN
F 1 "CONN_01X01" V 20475 6550 50  0000 C CNN
F 2 "Pin_Headers:Pin_Header_Straight_1x01_Pitch2.00mm" H 20375 6550 50  0001 C CNN
F 3 "" H 20375 6550 50  0001 C CNN
	1    20375 6550
	1    0    0    -1  
$EndComp
$Comp
L GND #PWR040
U 1 1 5A9CCE6D
P 20075 6650
F 0 "#PWR040" H 20075 6400 50  0001 C CNN
F 1 "GND" H 20075 6500 50  0000 C CNN
F 2 "" H 20075 6650 50  0001 C CNN
F 3 "" H 20075 6650 50  0001 C CNN
	1    20075 6650
	1    0    0    -1  
$EndComp
Text Notes 20625 4750 0    99   ~ 0
ESC_Pins
$Comp
L CONN_01X06 J15
U 1 1 5A9D9C16
P 16950 5350
F 0 "J15" H 16950 5700 50  0000 C CNN
F 1 "CONN_01X06" V 17050 5350 50  0000 C CNN
F 2 "Pin_Headers:Pin_Header_Straight_1x06_Pitch2.00mm" H 16950 5350 50  0001 C CNN
F 3 "" H 16950 5350 50  0001 C CNN
	1    16950 5350
	1    0    0    -1  
$EndComp
$Comp
L +3.3V #PWR041
U 1 1 5A9DEE39
P 16600 5000
F 0 "#PWR041" H 16600 4850 50  0001 C CNN
F 1 "+3.3V" H 16600 5140 50  0000 C CNN
F 2 "" H 16600 5000 50  0001 C CNN
F 3 "" H 16600 5000 50  0001 C CNN
	1    16600 5000
	1    0    0    -1  
$EndComp
$Comp
L GND #PWR042
U 1 1 5A9E08DD
P 16600 5800
F 0 "#PWR042" H 16600 5550 50  0001 C CNN
F 1 "GND" H 16600 5650 50  0000 C CNN
F 2 "" H 16600 5800 50  0001 C CNN
F 3 "" H 16600 5800 50  0001 C CNN
	1    16600 5800
	1    0    0    -1  
$EndComp
$Comp
L +5V #PWR043
U 1 1 5A9E7D3C
P 16350 5000
F 0 "#PWR043" H 16350 4850 50  0001 C CNN
F 1 "+5V" H 16350 5140 50  0000 C CNN
F 2 "" H 16350 5000 50  0001 C CNN
F 3 "" H 16350 5000 50  0001 C CNN
	1    16350 5000
	1    0    0    -1  
$EndComp
Text Label 15950 5600 0    60   ~ 0
LIPO+
Text Label 15950 5500 0    60   ~ 0
LIPO-
$Comp
L CONN_01X06 J18
U 1 1 5A9FAC8A
P 18550 5350
F 0 "J18" H 18550 5700 50  0000 C CNN
F 1 "CONN_01X06" V 18650 5350 50  0000 C CNN
F 2 "Pin_Headers:Pin_Header_Straight_1x06_Pitch2.00mm" H 18550 5350 50  0001 C CNN
F 3 "" H 18550 5350 50  0001 C CNN
	1    18550 5350
	1    0    0    -1  
$EndComp
$Comp
L R_Small R16
U 1 1 5AA04B62
P 17300 11850
F 0 "R16" H 17330 11870 50  0000 L CNN
F 1 "17.4k" H 17330 11810 50  0000 L CNN
F 2 "Resistors_SMD:R_0402_NoSilk" H 17300 11850 50  0001 C CNN
F 3 "" H 17300 11850 50  0001 C CNN
	1    17300 11850
	1    0    0    -1  
$EndComp
$Comp
L GND #PWR044
U 1 1 5AA04E3E
P 17300 12125
F 0 "#PWR044" H 17300 11875 50  0001 C CNN
F 1 "GND" H 17300 11975 50  0000 C CNN
F 2 "" H 17300 12125 50  0001 C CNN
F 3 "" H 17300 12125 50  0001 C CNN
	1    17300 12125
	1    0    0    -1  
$EndComp
$Comp
L R_Small R17
U 1 1 5AA07AC8
P 17650 11200
F 0 "R17" H 17680 11220 50  0000 L CNN
F 1 "100k" H 17680 11160 50  0000 L CNN
F 2 "Resistors_SMD:R_0402_NoSilk" H 17650 11200 50  0001 C CNN
F 3 "" H 17650 11200 50  0001 C CNN
	1    17650 11200
	1    0    0    -1  
$EndComp
$Comp
L R_Small R20
U 1 1 5AA0D734
P 17900 5400
F 0 "R20" H 17930 5420 50  0000 L CNN
F 1 "1k" H 17930 5360 50  0000 L CNN
F 2 "Resistors_SMD:R_0402_NoSilk" H 17900 5400 50  0001 C CNN
F 3 "" H 17900 5400 50  0001 C CNN
	1    17900 5400
	0    -1   -1   0   
$EndComp
Text Label 17450 5400 0    60   ~ 0
OSD_IN
Text Label 17450 5300 0    60   ~ 0
RESET
Text Label 11050 4100 2    60   ~ 0
OSD_OUT
$Comp
L R_Small R21
U 1 1 5AA19A47
P 18050 5500
F 0 "R21" H 18080 5520 50  0000 L CNN
F 1 "1k" H 18080 5460 50  0000 L CNN
F 2 "Resistors_SMD:R_0402_NoSilk" H 18050 5500 50  0001 C CNN
F 3 "" H 18050 5500 50  0001 C CNN
	1    18050 5500
	0    -1   -1   0   
$EndComp
Text Label 17450 5500 0    60   ~ 0
OSD_OUT
$Comp
L R_Small R22
U 1 1 5AA1C415
P 18200 5600
F 0 "R22" H 18230 5620 50  0000 L CNN
F 1 "1k" H 18230 5560 50  0000 L CNN
F 2 "Resistors_SMD:R_0402_NoSilk" H 18200 5600 50  0001 C CNN
F 3 "" H 18200 5600 50  0001 C CNN
	1    18200 5600
	0    -1   -1   0   
$EndComp
Text Label 17450 5600 0    60   ~ 0
Cam_CTRL
Text Label 11050 4200 2    60   ~ 0
Cam_CTRL
Text Label 17450 5100 0    60   ~ 0
SWCLK
Text Label 17450 5200 0    60   ~ 0
SWDIO
$Comp
L CONN_01X06 J16
U 1 1 5AA25ECD
P 16950 6750
F 0 "J16" H 16950 7100 50  0000 C CNN
F 1 "CONN_01X06" V 17050 6750 50  0000 C CNN
F 2 "Pin_Headers:Pin_Header_Straight_1x06_Pitch2.00mm" H 16950 6750 50  0001 C CNN
F 3 "" H 16950 6750 50  0001 C CNN
	1    16950 6750
	1    0    0    -1  
$EndComp
$Comp
L CONN_01X06 J19
U 1 1 5AA2600D
P 18550 6750
F 0 "J19" H 18550 7100 50  0000 C CNN
F 1 "CONN_01X06" V 18650 6750 50  0000 C CNN
F 2 "Pin_Headers:Pin_Header_Straight_1x06_Pitch2.00mm" H 18550 6750 50  0001 C CNN
F 3 "" H 18550 6750 50  0001 C CNN
	1    18550 6750
	1    0    0    -1  
$EndComp
Text Label 11350 6000 2    60   ~ 0
BARO_SCL
Text Label 11350 6100 2    60   ~ 0
BARO_SDA
Text Label 17450 6600 0    60   ~ 0
GPIO_00
Text Label 17450 6800 0    60   ~ 0
GPIO_02
Text Label 17450 6900 0    60   ~ 0
GPIO_03
Text Label 17450 7000 0    60   ~ 0
GPIO_04
$Comp
L GND #PWR045
U 1 1 5AAD6535
P 16600 7200
F 0 "#PWR045" H 16600 6950 50  0001 C CNN
F 1 "GND" H 16600 7050 50  0000 C CNN
F 2 "" H 16600 7200 50  0001 C CNN
F 3 "" H 16600 7200 50  0001 C CNN
	1    16600 7200
	1    0    0    -1  
$EndComp
Text Label 15850 6700 0    60   ~ 0
GPIO_07
Text Label 15850 6800 0    60   ~ 0
GPIO_08
Text Label 15850 6900 0    60   ~ 0
GPIO_09
Text Label 15850 8450 0    60   ~ 0
GPIO_10
Text Label 11000 5500 2    60   ~ 0
GPIO_01
Text Label 17450 6700 0    60   ~ 0
GPIO_01
Text Label 11000 5400 2    60   ~ 0
GPIO_00
Text Label 11000 5600 2    60   ~ 0
GPIO_02
Text Label 11000 6400 2    60   ~ 0
GPIO_03
Text Label 11000 6500 2    60   ~ 0
GPIO_04
Text Label 11000 6900 2    60   ~ 0
BUZZ
Text Label 7200 6000 0    60   ~ 0
GPIO_07
Text Label 7200 6100 0    60   ~ 0
GPIO_08
Text Label 7200 6200 0    60   ~ 0
GPIO_09
$Comp
L CONN_01X06 J20
U 1 1 5AB0FC92
P 18550 8200
F 0 "J20" H 18550 8550 50  0000 C CNN
F 1 "CONN_01X06" V 18650 8200 50  0000 C CNN
F 2 "Pin_Headers:Pin_Header_Straight_1x06_Pitch2.00mm" H 18550 8200 50  0001 C CNN
F 3 "" H 18550 8200 50  0001 C CNN
	1    18550 8200
	1    0    0    -1  
$EndComp
$Comp
L CONN_01X06 J17
U 1 1 5AB11982
P 16950 8200
F 0 "J17" H 16950 8550 50  0000 C CNN
F 1 "CONN_01X06" V 17050 8200 50  0000 C CNN
F 2 "Pin_Headers:Pin_Header_Straight_1x06_Pitch2.00mm" H 16950 8200 50  0001 C CNN
F 3 "" H 16950 8200 50  0001 C CNN
	1    16950 8200
	1    0    0    -1  
$EndComp
Text Label 17450 8450 0    60   ~ 0
CAN1_TX
Text Label 17450 8350 0    60   ~ 0
CAN1_RX
Text Label 11000 5900 2    60   ~ 0
SPI3_MOSI
Text Label 11000 5800 2    60   ~ 0
SPI3_MISO
Text Label 17450 8250 0    60   ~ 0
SPI3_MOSI
Text Label 17450 8150 0    60   ~ 0
SPI3_MISO
Text Label 17450 8050 0    60   ~ 0
GPIO_15
Text Label 17450 7950 0    60   ~ 0
GPIO_14
Text Label 7200 5300 0    60   ~ 0
GPIO_15
Text Label 7200 6600 0    60   ~ 0
GPIO_14
$Comp
L GND #PWR046
U 1 1 5AB21741
P 16600 8650
F 0 "#PWR046" H 16600 8400 50  0001 C CNN
F 1 "GND" H 16600 8500 50  0000 C CNN
F 2 "" H 16600 8650 50  0001 C CNN
F 3 "" H 16600 8650 50  0001 C CNN
	1    16600 8650
	1    0    0    -1  
$EndComp
Text Label 7200 6400 0    60   ~ 0
SPI3_SCK
Text Label 15850 8050 0    60   ~ 0
SPI3_SCK
Text Label 15850 8150 0    60   ~ 0
GPIO_13
Text Label 12250 4700 2    60   ~ 0
GPIO_13
Text Label 15850 8250 0    60   ~ 0
GPIO_12
Text Label 11000 4600 2    60   ~ 0
GPIO_12
Text Label 11000 4500 2    60   ~ 0
GPIO_11
Text Label 15850 8350 0    60   ~ 0
GPIO_11
Text Label 7200 6300 0    60   ~ 0
GPIO_10
Text Label 17450 6500 0    60   ~ 0
GPIO_16
Text Label 7200 5900 0    60   ~ 0
GPIO_16
Text Label 7450 6800 0    60   ~ 0
LED2
$Comp
L CONN_01X01 J10
U 1 1 5AB45D94
P 15200 6900
F 0 "J10" H 15200 7000 50  0000 C CNN
F 1 "CONN_01X01" V 15300 6900 50  0000 C CNN
F 2 "Pin_Headers:Pin_Header_Straight_1x01_Pitch2.00mm" H 15200 6900 50  0001 C CNN
F 3 "" H 15200 6900 50  0001 C CNN
	1    15200 6900
	1    0    0    -1  
$EndComp
$Comp
L GND #PWR047
U 1 1 5AB4745B
P 14850 7100
F 0 "#PWR047" H 14850 6850 50  0001 C CNN
F 1 "GND" H 14850 6950 50  0000 C CNN
F 2 "" H 14850 7100 50  0001 C CNN
F 3 "" H 14850 7100 50  0001 C CNN
	1    14850 7100
	1    0    0    -1  
$EndComp
$Comp
L CONN_01X01 J9
U 1 1 5AB475A2
P 15200 6700
F 0 "J9" H 15200 6800 50  0000 C CNN
F 1 "CONN_01X01" V 15300 6700 50  0000 C CNN
F 2 "Pin_Headers:Pin_Header_Straight_1x01_Pitch2.00mm" H 15200 6700 50  0001 C CNN
F 3 "" H 15200 6700 50  0001 C CNN
	1    15200 6700
	1    0    0    -1  
$EndComp
$Comp
L CONN_01X01 J14
U 1 1 5AB4ACC5
P 15200 8550
F 0 "J14" H 15200 8650 50  0000 C CNN
F 1 "CONN_01X01" V 15300 8550 50  0000 C CNN
F 2 "Pin_Headers:Pin_Header_Straight_1x01_Pitch2.00mm" H 15200 8550 50  0001 C CNN
F 3 "" H 15200 8550 50  0001 C CNN
	1    15200 8550
	1    0    0    -1  
$EndComp
$Comp
L GND #PWR048
U 1 1 5AB4ACCC
P 14850 8750
F 0 "#PWR048" H 14850 8500 50  0001 C CNN
F 1 "GND" H 14850 8600 50  0000 C CNN
F 2 "" H 14850 8750 50  0001 C CNN
F 3 "" H 14850 8750 50  0001 C CNN
	1    14850 8750
	1    0    0    -1  
$EndComp
$Comp
L CONN_01X01 J11
U 1 1 5AB4ACDB
P 15200 7950
F 0 "J11" H 15200 8050 50  0000 C CNN
F 1 "CONN_01X01" V 15300 7950 50  0000 C CNN
F 2 "Pin_Headers:Pin_Header_Straight_1x01_Pitch2.00mm" H 15200 7950 50  0001 C CNN
F 3 "" H 15200 7950 50  0001 C CNN
	1    15200 7950
	1    0    0    -1  
$EndComp
$Comp
L +3.3V #PWR049
U 1 1 5AB4ACE1
P 14850 7850
F 0 "#PWR049" H 14850 7700 50  0001 C CNN
F 1 "+3.3V" H 14850 7990 50  0000 C CNN
F 2 "" H 14850 7850 50  0001 C CNN
F 3 "" H 14850 7850 50  0001 C CNN
	1    14850 7850
	1    0    0    -1  
$EndComp
$Comp
L CONN_01X01 J12
U 1 1 5AB4ACE9
P 15200 8150
F 0 "J12" H 15200 8250 50  0000 C CNN
F 1 "CONN_01X01" V 15300 8150 50  0000 C CNN
F 2 "Pin_Headers:Pin_Header_Straight_1x01_Pitch2.00mm" H 15200 8150 50  0001 C CNN
F 3 "" H 15200 8150 50  0001 C CNN
	1    15200 8150
	1    0    0    -1  
$EndComp
$Comp
L +5V #PWR050
U 1 1 5AB4C3D4
P 14550 7850
F 0 "#PWR050" H 14550 7700 50  0001 C CNN
F 1 "+5V" H 14550 7990 50  0000 C CNN
F 2 "" H 14550 7850 50  0001 C CNN
F 3 "" H 14550 7850 50  0001 C CNN
	1    14550 7850
	1    0    0    -1  
$EndComp
Text Label 11550 5200 2    60   ~ 0
SD_CS
Text Label 11550 4300 2    60   ~ 0
SD_MISO
Text Label 11550 4400 2    60   ~ 0
SD_MOSI
Text Label 11550 5700 2    60   ~ 0
SD_SCK
Text Notes 17100 4800 0    99   ~ 0
Group_1
Text Notes 17075 6250 0    99   ~ 0
Group_2
Text Notes 17050 7700 0    99   ~ 0
Group_3
Text Notes 14700 5900 0    99   ~ 0
Power_Pins_1
Text Notes 14650 7575 0    99   ~ 0
Power_Pins_2
Text Notes 11975 14025 0    99   ~ 0
3.3V Sensors
$Comp
L LP5907 U2
U 1 1 5AB6DA3A
P 12450 14875
F 0 "U2" H 12650 14525 60  0000 C CNN
F 1 "LP5907" H 12375 15275 60  0000 C CNN
F 2 "TO_SOT_Packages_SMD:SOT-23-5_HandSoldering" H 12450 14750 60  0001 C CNN
F 3 "http://www.ti.com/lit/ds/symlink/lp5907.pdf" H 12450 14750 60  0001 C CNN
	1    12450 14875
	1    0    0    -1  
$EndComp
$Comp
L C_Small C10
U 1 1 5AB71F3C
P 11900 15250
F 0 "C10" H 11910 15320 50  0000 L CNN
F 1 "1uF-10uF" H 11910 15170 50  0000 L CNN
F 2 "Capacitors_SMD:C_0603" H 11900 15250 50  0001 C CNN
F 3 "" H 11900 15250 50  0001 C CNN
	1    11900 15250
	1    0    0    -1  
$EndComp
$Comp
L GND #PWR051
U 1 1 5AB7246B
P 12450 15650
F 0 "#PWR051" H 12450 15400 50  0001 C CNN
F 1 "GND" H 12450 15500 50  0000 C CNN
F 2 "" H 12450 15650 50  0001 C CNN
F 3 "" H 12450 15650 50  0001 C CNN
	1    12450 15650
	1    0    0    -1  
$EndComp
$Comp
L C_Small C13
U 1 1 5AB72DE1
P 13200 15250
F 0 "C13" H 13210 15320 50  0000 L CNN
F 1 "1uF-10uF" H 13210 15170 50  0000 L CNN
F 2 "Capacitors_SMD:C_0603" H 13200 15250 50  0001 C CNN
F 3 "" H 13200 15250 50  0001 C CNN
	1    13200 15250
	1    0    0    -1  
$EndComp
Text GLabel 13200 14500 1    60   Output ~ 0
+3.3V_Sensors
Text GLabel 11700 11875 1    60   Input ~ 0
+3.3V_Sensors
Text GLabel 8400 12975 1    60   Input ~ 0
+3.3V_Sensors
Text GLabel 9350 12000 1    60   Input ~ 0
+3.3V_Sensors
Text Notes 19950 10275 0    157  ~ 31
CHECK
Text Notes 20250 12825 0    157  ~ 31
CHECK
Text Notes 13550 11075 0    157  ~ 31
CHECK
Text Notes 13700 14050 0    157  ~ 31
CHECK
Text Notes 10325 11050 0    157  ~ 31
CHECK
$Comp
L R_Small R2
U 1 1 5AB41E88
P 2350 12650
F 0 "R2" H 2380 12670 50  0000 L CNN
F 1 "R_Small" H 2380 12610 50  0000 L CNN
F 2 "Resistors_SMD:R_0402_NoSilk" H 2350 12650 50  0001 C CNN
F 3 "" H 2350 12650 50  0001 C CNN
	1    2350 12650
	1    0    0    -1  
$EndComp
Text Notes 2100 12425 0    39   Italic 0
Pullup not \nnecessarily needed
$Comp
L R_Small R3
U 1 1 5AB46DF5
P 2450 13600
F 0 "R3" H 2480 13620 50  0000 L CNN
F 1 "R_Small" H 2480 13560 50  0000 L CNN
F 2 "Resistors_SMD:R_0402_NoSilk" H 2450 13600 50  0001 C CNN
F 3 "" H 2450 13600 50  0001 C CNN
	1    2450 13600
	1    0    0    -1  
$EndComp
Text Notes 1850 13675 0    39   Italic 0
Pulldown not \nnecessarily needed
Text Notes 4275 12025 0    157  ~ 31
CHECK
Text Notes 3775 7025 0    157  ~ 31
CHECK
$Comp
L R_Small R9
U 1 1 5AB58FDD
P 3150 2000
F 0 "R9" H 3180 2020 50  0000 L CNN
F 1 "100k" H 3180 1960 50  0000 L CNN
F 2 "Resistors_SMD:R_0402_NoSilk" H 3150 2000 50  0001 C CNN
F 3 "" H 3150 2000 50  0001 C CNN
	1    3150 2000
	-1   0    0    1   
$EndComp
$Comp
L R_Small R10
U 1 1 5AB59D1D
P 3150 2550
F 0 "R10" H 3180 2570 50  0000 L CNN
F 1 "100k" H 3180 2510 50  0000 L CNN
F 2 "Resistors_SMD:R_0402_NoSilk" H 3150 2550 50  0001 C CNN
F 3 "" H 3150 2550 50  0001 C CNN
	1    3150 2550
	-1   0    0    1   
$EndComp
$Comp
L GND #PWR052
U 1 1 5AB5A280
P 3150 2750
F 0 "#PWR052" H 3150 2500 50  0001 C CNN
F 1 "GND" H 3150 2600 50  0000 C CNN
F 2 "" H 3150 2750 50  0001 C CNN
F 3 "" H 3150 2750 50  0001 C CNN
	1    3150 2750
	1    0    0    -1  
$EndComp
Text Label 3700 2250 2    60   ~ 0
USB_SENS
Text Label 11000 6800 2    60   ~ 0
USB_SENS
Text Label 16650 2200 0    60   ~ 0
BUZZ
Text Notes 17450 1375 0    99   ~ 0
Buzzer
$Comp
L R_Small R15
U 1 1 5AB6A12B
P 17100 2200
F 0 "R15" H 17130 2220 50  0000 L CNN
F 1 "2.7k" H 17130 2160 50  0000 L CNN
F 2 "Resistors_SMD:R_0402_NoSilk" H 17100 2200 50  0001 C CNN
F 3 "" H 17100 2200 50  0001 C CNN
	1    17100 2200
	0    1    1    0   
$EndComp
$Comp
L GND #PWR053
U 1 1 5AB6F0A3
P 17700 2550
F 0 "#PWR053" H 17700 2300 50  0001 C CNN
F 1 "GND" H 17700 2400 50  0000 C CNN
F 2 "" H 17700 2550 50  0001 C CNN
F 3 "" H 17700 2550 50  0001 C CNN
	1    17700 2550
	1    0    0    -1  
$EndComp
Text Label 15850 6600 0    60   ~ 0
BUZZ-
$Comp
L +5V #PWR054
U 1 1 5AB7441C
P 16600 6400
F 0 "#PWR054" H 16600 6250 50  0001 C CNN
F 1 "+5V" H 16600 6540 50  0000 C CNN
F 2 "" H 16600 6400 50  0001 C CNN
F 3 "" H 16600 6400 50  0001 C CNN
	1    16600 6400
	1    0    0    -1  
$EndComp
Text Label 17700 1550 3    60   ~ 0
BUZZ-
Text Notes 3925 1650 0    157  ~ 31
CHECK
Text Notes 14525 950  0    157  ~ 31
CHECK
$Comp
L GND #PWR055
U 1 1 5AB5782C
P 20075 6175
F 0 "#PWR055" H 20075 5925 50  0001 C CNN
F 1 "GND" H 20075 6025 50  0000 C CNN
F 2 "" H 20075 6175 50  0001 C CNN
F 3 "" H 20075 6175 50  0001 C CNN
	1    20075 6175
	1    0    0    -1  
$EndComp
$Comp
L GND #PWR056
U 1 1 5AB5805B
P 20075 5700
F 0 "#PWR056" H 20075 5450 50  0001 C CNN
F 1 "GND" H 20075 5550 50  0000 C CNN
F 2 "" H 20075 5700 50  0001 C CNN
F 3 "" H 20075 5700 50  0001 C CNN
	1    20075 5700
	1    0    0    -1  
$EndComp
$Comp
L GND #PWR057
U 1 1 5AB58A5A
P 20075 5225
F 0 "#PWR057" H 20075 4975 50  0001 C CNN
F 1 "GND" H 20075 5075 50  0000 C CNN
F 2 "" H 20075 5225 50  0001 C CNN
F 3 "" H 20075 5225 50  0001 C CNN
	1    20075 5225
	1    0    0    -1  
$EndComp
Text Notes 18075 1400 0    157  ~ 31
CHECK
$Comp
L R_Small R25
U 1 1 5AB8A57A
P 20050 1850
F 0 "R25" H 20080 1870 50  0000 L CNN
F 1 "100R" H 20080 1810 50  0000 L CNN
F 2 "Resistors_SMD:R_0402_NoSilk" H 20050 1850 50  0001 C CNN
F 3 "" H 20050 1850 50  0001 C CNN
	1    20050 1850
	1    0    0    -1  
$EndComp
$Comp
L LED_Small D4
U 1 1 5AB8A580
P 20050 2200
F 0 "D4" H 20000 2325 50  0000 L CNN
F 1 "2.1V, Green" H 19875 2100 50  0000 L CNN
F 2 "LEDs:LED_0603" V 20050 2200 50  0001 C CNN
F 3 "" V 20050 2200 50  0001 C CNN
	1    20050 2200
	0    -1   -1   0   
$EndComp
$Comp
L +3.3V #PWR058
U 1 1 5AB8AD41
P 20050 1600
F 0 "#PWR058" H 20050 1450 50  0001 C CNN
F 1 "+3.3V" H 20050 1740 50  0000 C CNN
F 2 "" H 20050 1600 50  0001 C CNN
F 3 "" H 20050 1600 50  0001 C CNN
	1    20050 1600
	1    0    0    -1  
$EndComp
$Comp
L R_Small R28
U 1 1 5AB8BF39
P 21000 1850
F 0 "R28" H 21030 1870 50  0000 L CNN
F 1 "100R" H 21030 1810 50  0000 L CNN
F 2 "Resistors_SMD:R_0402_NoSilk" H 21000 1850 50  0001 C CNN
F 3 "" H 21000 1850 50  0001 C CNN
	1    21000 1850
	1    0    0    -1  
$EndComp
$Comp
L LED_Small D6
U 1 1 5AB8BF3F
P 21000 2200
F 0 "D6" H 20950 2325 50  0000 L CNN
F 1 "2V, Red" H 20825 2100 50  0000 L CNN
F 2 "LEDs:LED_0603" V 21000 2200 50  0001 C CNN
F 3 "" V 21000 2200 50  0001 C CNN
	1    21000 2200
	0    -1   -1   0   
$EndComp
$Comp
L +3.3V #PWR059
U 1 1 5AB8BF47
P 21000 1600
F 0 "#PWR059" H 21000 1450 50  0001 C CNN
F 1 "+3.3V" H 21000 1740 50  0000 C CNN
F 2 "" H 21000 1600 50  0001 C CNN
F 3 "" H 21000 1600 50  0001 C CNN
	1    21000 1600
	1    0    0    -1  
$EndComp
Text Notes 20975 1350 0    157  ~ 31
CHECK
Text Notes 18800 4325 0    157  ~ 31
CHECK
$Comp
L GND #PWR060
U 1 1 5AB963E0
P 2000 2000
F 0 "#PWR060" H 2000 1750 50  0001 C CNN
F 1 "GND" H 2000 1850 50  0000 C CNN
F 2 "" H 2000 2000 50  0001 C CNN
F 3 "" H 2000 2000 50  0001 C CNN
	1    2000 2000
	1    0    0    -1  
$EndComp
Text Notes 10100 2700 0    157  ~ 31
CHECK
$Comp
L R_Small R7
U 1 1 5AC6D805
P 2650 3050
F 0 "R7" H 2680 3070 50  0000 L CNN
F 1 "0/1.5k" H 2680 3010 50  0000 L CNN
F 2 "Resistors_SMD:R_0402_NoSilk" H 2650 3050 50  0001 C CNN
F 3 "" H 2650 3050 50  0001 C CNN
	1    2650 3050
	-1   0    0    1   
$EndComp
$Comp
L +3.3V #PWR061
U 1 1 5AC6DE93
P 2650 2850
F 0 "#PWR061" H 2650 2700 50  0001 C CNN
F 1 "+3.3V" H 2650 2990 50  0000 C CNN
F 2 "" H 2650 2850 50  0001 C CNN
F 3 "" H 2650 2850 50  0001 C CNN
	1    2650 2850
	1    0    0    -1  
$EndComp
$Comp
L Polyfuse_Small F1
U 1 1 5AC7D43C
P 2250 2600
F 0 "F1" V 2175 2600 50  0000 C CNN
F 1 "0.5A" V 2325 2600 50  0000 C CNN
F 2 "Fuses_local:Fuse_PPTC-MF-MSMF050" H 2300 2400 50  0001 L CNN
F 3 "https://www.mouser.ch/ProductDetail/Bourns/MF-MSMF050-2?qs=sGAEpiMZZMsxR%252bBXi4wRUEOoffeXY2tkzAzT0yjAW0Q%3d" H 2250 2600 50  0001 C CNN
	1    2250 2600
	1    0    0    -1  
$EndComp
$Comp
L D_Schottky_Small D3
U 1 1 5AC82CDF
P 19050 10925
F 0 "D3" H 19000 11005 50  0000 L CNN
F 1 "60V, 3A, B360AM" H 18770 10845 50  0000 C CNN
F 2 "Diodes_SMD:D_SMA" V 19050 10925 50  0001 C CNN
F 3 "https://www.mouser.ch/ProductDetail/Diodes-Incorporated/B360AM-13-F?qs=sGAEpiMZZMtQ8nqTKtFS%2fH%2f7jthu7RBqLKjd%252bu6HgXkZ2quP2tV%252bIw%3d%3d" V 19050 10925 50  0001 C CNN
	1    19050 10925
	0    1    1    0   
$EndComp
$Comp
L +5V #PWR062
U 1 1 5ACAE035
P 21875 10650
F 0 "#PWR062" H 21875 10500 50  0001 C CNN
F 1 "+5V" H 21875 10790 50  0000 C CNN
F 2 "" H 21875 10650 50  0001 C CNN
F 3 "" H 21875 10650 50  0001 C CNN
	1    21875 10650
	1    0    0    -1  
$EndComp
Text GLabel 22025 11750 3    60   Output ~ 0
3V3_RegIn
Text GLabel 18325 13625 0    60   Input ~ 0
3V3_RegIn
Text GLabel 11700 14500 1    60   Input ~ 0
3V3_RegIn
$Comp
L R_Small R14
U 1 1 5AC90236
P 13800 15050
F 0 "R14" H 13830 15070 50  0000 L CNN
F 1 "130R" H 13830 15010 50  0000 L CNN
F 2 "Resistors_SMD:R_0402_NoSilk" H 13800 15050 50  0001 C CNN
F 3 "" H 13800 15050 50  0001 C CNN
	1    13800 15050
	1    0    0    -1  
$EndComp
$Comp
L LED_Small D1
U 1 1 5AC9023C
P 13800 15400
F 0 "D1" H 13750 15525 50  0000 L CNN
F 1 "2.1V, Yellow" H 13625 15300 50  0000 L CNN
F 2 "LEDs:LED_0603" V 13800 15400 50  0001 C CNN
F 3 "" V 13800 15400 50  0001 C CNN
	1    13800 15400
	0    -1   -1   0   
$EndComp
$Comp
L GND #PWR063
U 1 1 5AC90242
P 13800 15650
F 0 "#PWR063" H 13800 15400 50  0001 C CNN
F 1 "GND" H 13800 15500 50  0000 C CNN
F 2 "" H 13800 15650 50  0001 C CNN
F 3 "" H 13800 15650 50  0001 C CNN
	1    13800 15650
	1    0    0    -1  
$EndComp
$Comp
L C_Small C4
U 1 1 5ACACBBE
P 7650 3700
F 0 "C4" H 7660 3770 50  0000 L CNN
F 1 "100nF" H 7660 3620 50  0000 L CNN
F 2 "Capacitors_SMD:C_0402_NoSilk" H 7650 3700 50  0001 C CNN
F 3 "" H 7650 3700 50  0001 C CNN
	1    7650 3700
	1    0    0    -1  
$EndComp
$Comp
L GND #PWR064
U 1 1 5ACACFE2
P 7650 3400
F 0 "#PWR064" H 7650 3150 50  0001 C CNN
F 1 "GND" H 7650 3250 50  0000 C CNN
F 2 "" H 7650 3400 50  0001 C CNN
F 3 "" H 7650 3400 50  0001 C CNN
	1    7650 3400
	-1   0    0    1   
$EndComp
$Comp
L Crystal_GND24_Small Y1
U 1 1 5ACBF5B9
P 6400 5050
F 0 "Y1" H 6450 5225 50  0000 L CNN
F 1 "8MHz, FY0800018" H 6450 5150 50  0000 L CNN
F 2 "Crystals:Crystal_SMD_Abracon_ABM3C-4pin_5.0x3.2mm" H 6400 5050 50  0001 C CNN
F 3 "https://www.mouser.ch/datasheet/2/115/FY0800018-1129601.pdf" H 6400 5050 50  0001 C CNN
	1    6400 5050
	0    1    1    0   
$EndComp
$Comp
L GND #PWR065
U 1 1 5ACC0F1B
P 6150 5300
F 0 "#PWR065" H 6150 5050 50  0001 C CNN
F 1 "GND" H 6150 5150 50  0000 C CNN
F 2 "" H 6150 5300 50  0001 C CNN
F 3 "" H 6150 5300 50  0001 C CNN
	1    6150 5300
	1    0    0    -1  
$EndComp
$Comp
L GND #PWR066
U 1 1 5ACC13B6
P 6650 5300
F 0 "#PWR066" H 6650 5050 50  0001 C CNN
F 1 "GND" H 6650 5150 50  0000 C CNN
F 2 "" H 6650 5300 50  0001 C CNN
F 3 "" H 6650 5300 50  0001 C CNN
	1    6650 5300
	1    0    0    -1  
$EndComp
$Comp
L CONN_01X02 J1
U 1 1 5AD191E2
P 1650 1800
F 0 "J1" H 1650 1950 50  0000 C CNN
F 1 "CONN_01X02" V 1750 1800 50  0000 C CNN
F 2 "Pin_Headers:Pin_Header_Straight_1x02_Pitch2.00mm" H 1650 1800 50  0001 C CNN
F 3 "" H 1650 1800 50  0001 C CNN
	1    1650 1800
	-1   0    0    1   
$EndComp
$Comp
L Q_NPN_BEC Q1
U 1 1 5AD200FC
P 17600 2200
F 0 "Q1" H 17800 2250 50  0000 L CNN
F 1 "NPN - CMPT3904E TR - SOT23" H 17800 2150 50  0000 L CNN
F 2 "TO_SOT_Packages_SMD:SOT-23" H 17800 2300 50  0001 C CNN
F 3 "" H 17600 2200 50  0001 C CNN
	1    17600 2200
	1    0    0    -1  
$EndComp
$Comp
L ST1L05APU33R U5
U 1 1 5AEBA6EE
P 19225 13625
F 0 "U5" H 19475 13325 60  0000 C CNN
F 1 "ST1L05APU33R" H 19225 14175 60  0000 C CNN
F 2 "ST1L05:ST1L05APU33R" H 19225 13625 60  0001 C CNN
F 3 "" H 19225 13625 60  0001 C CNN
	1    19225 13625
	1    0    0    -1  
$EndComp
$Comp
L GND #PWR067
U 1 1 5AECD90E
P 19225 13000
F 0 "#PWR067" H 19225 12750 50  0001 C CNN
F 1 "GND" H 19225 12850 50  0000 C CNN
F 2 "" H 19225 13000 50  0001 C CNN
F 3 "" H 19225 13000 50  0001 C CNN
	1    19225 13000
	-1   0    0    1   
$EndComp
$Comp
L MS5637 U3
U 1 1 5AEC9692
P 12600 12225
F 0 "U3" H 12750 11975 60  0000 C CNN
F 1 "MS5637" H 12600 12475 60  0000 C CNN
F 2 "MS5637:MS5637" H 12600 12225 60  0001 C CNN
F 3 "" H 12600 12225 60  0001 C CNN
	1    12600 12225
	1    0    0    -1  
$EndComp
$Comp
L GND #PWR068
U 1 1 5AECD9A0
P 12100 12675
F 0 "#PWR068" H 12100 12425 50  0001 C CNN
F 1 "GND" H 12100 12525 50  0000 C CNN
F 2 "" H 12100 12675 50  0001 C CNN
F 3 "" H 12100 12675 50  0001 C CNN
	1    12100 12675
	1    0    0    -1  
$EndComp
Text Label 2200 3275 0    60   ~ 0
D+
Text Label 2200 3375 0    60   ~ 0
D-
$Comp
L TEST_1P J3
U 1 1 5AF29D5E
P 14400 4900
F 0 "J3" H 14400 5170 50  0000 C CNN
F 1 "TEST_1P" H 14400 5100 50  0000 C CNN
F 2 "Measurement_Points:Measurement_Point_Round-TH_Small" H 14600 4900 50  0001 C CNN
F 3 "" H 14600 4900 50  0001 C CNN
	1    14400 4900
	1    0    0    -1  
$EndComp
$Comp
L TEST_1P J7
U 1 1 5AF2A6D3
P 14800 4900
F 0 "J7" H 14800 5170 50  0000 C CNN
F 1 "TEST_1P" H 14800 5100 50  0000 C CNN
F 2 "Measurement_Points:Measurement_Point_Round-TH_Small" H 15000 4900 50  0001 C CNN
F 3 "" H 15000 4900 50  0001 C CNN
	1    14800 4900
	1    0    0    -1  
$EndComp
Text Label 15300 5000 2    60   ~ 0
SWDIO
Text Label 13850 5000 0    60   ~ 0
SWCLK
Wire Wire Line
	1775 3675 1775 3925
Wire Wire Line
	1775 3775 1875 3775
Wire Wire Line
	1875 3775 1875 3675
Connection ~ 1775 3775
Wire Wire Line
	1850 1750 3150 1750
Wire Wire Line
	2250 1150 2250 2500
Connection ~ 2250 1750
Wire Wire Line
	18300 11750 18300 12125
Wire Wire Line
	17850 11475 17700 11475
Wire Wire Line
	17700 11475 17700 11750
Wire Wire Line
	17700 11950 17700 12125
Wire Wire Line
	18900 11675 18900 11825
Wire Wire Line
	18900 12025 18900 12125
Wire Wire Line
	20000 11675 20000 12125
Wire Wire Line
	18750 11325 20125 11325
Wire Wire Line
	20000 11325 20000 11475
Connection ~ 20000 11325
Wire Wire Line
	19575 10825 20975 10825
Wire Wire Line
	20325 10825 20325 11325
Connection ~ 19775 10825
Wire Wire Line
	18625 10825 19275 10825
Wire Wire Line
	18750 10825 18750 11175
Connection ~ 18750 10825
Wire Wire Line
	18425 10825 18300 10825
Wire Wire Line
	18300 10825 18300 10900
Wire Wire Line
	17850 11050 17850 11175
Connection ~ 20325 10825
Wire Wire Line
	18300 11950 18575 11950
Wire Wire Line
	18575 11950 18575 12125
Connection ~ 18300 11950
Wire Wire Line
	17475 10550 17475 10775
Wire Wire Line
	19050 11125 19050 11025
Wire Wire Line
	19775 11125 19775 11025
Wire Wire Line
	20475 11175 20475 11325
Wire Wire Line
	20475 11525 20475 11675
Wire Wire Line
	20475 10825 20475 10975
Connection ~ 20475 10825
Wire Wire Line
	20400 13975 20400 14125
Wire Wire Line
	20400 14325 20400 14475
Wire Wire Line
	9400 3400 9400 3500
Wire Wire Line
	8700 3500 8700 3400
Wire Wire Line
	8900 7100 8900 7300
Wire Wire Line
	8900 7300 9300 7300
Wire Wire Line
	9300 7300 9300 7100
Wire Wire Line
	9200 7100 9200 7300
Connection ~ 9200 7300
Wire Wire Line
	9100 7100 9100 7500
Connection ~ 9100 7300
Wire Wire Line
	9000 7100 9000 7300
Connection ~ 9000 7300
Wire Wire Line
	7450 4600 7900 4600
Wire Wire Line
	7050 4600 7250 4600
Wire Wire Line
	7750 4950 7750 5000
Wire Wire Line
	7750 5000 7900 5000
Wire Wire Line
	7900 5100 7750 5100
Wire Wire Line
	7750 5100 7750 5150
Wire Wire Line
	5700 4950 5550 4950
Wire Wire Line
	5550 5150 5700 5150
Wire Wire Line
	2650 1150 3300 1150
Wire Wire Line
	21875 11300 21875 11600
Wire Wire Line
	21875 11600 22175 11600
Wire Wire Line
	22175 11600 22175 11300
Wire Wire Line
	20975 10825 20975 11025
Wire Wire Line
	22025 11750 22025 11600
Connection ~ 22025 11600
Wire Wire Line
	22175 10650 22175 11100
Wire Wire Line
	5550 4200 6125 4200
Wire Wire Line
	5550 4400 6125 4400
Wire Wire Line
	10300 5100 10750 5100
Wire Wire Line
	10300 5000 10750 5000
Wire Wire Line
	11050 4900 10300 4900
Wire Wire Line
	10300 4800 11050 4800
Wire Wire Line
	10300 4700 11175 4700
Wire Wire Line
	11175 4700 11175 4800
Wire Wire Line
	11175 4800 11250 4800
Wire Wire Line
	11550 4900 11950 4900
Wire Wire Line
	13000 12125 13750 12125
Wire Wire Line
	13000 12325 13750 12325
Wire Wire Line
	10300 6300 10750 6300
Wire Wire Line
	10300 6200 10750 6200
Wire Wire Line
	13075 11500 13075 11575
Wire Wire Line
	13275 11375 13275 11575
Wire Wire Line
	13075 11500 13275 11500
Connection ~ 13275 11500
Wire Wire Line
	7450 5500 7900 5500
Wire Wire Line
	16925 12125 16925 11225
Wire Wire Line
	16925 11225 16475 11225
Wire Wire Line
	2625 8675 2625 8475
Wire Wire Line
	2625 7975 2625 8275
Wire Wire Line
	2625 7775 2625 7275
Wire Wire Line
	2625 7275 2225 7275
Wire Wire Line
	2625 8125 3175 8125
Connection ~ 2625 8125
Wire Wire Line
	7900 5600 7450 5600
Wire Wire Line
	9350 12000 9350 12550
Wire Wire Line
	8950 12450 9050 12450
Wire Wire Line
	8400 13350 8750 13350
Wire Wire Line
	8400 12975 8400 13350
Wire Wire Line
	8300 13150 8400 13150
Connection ~ 8400 13150
Wire Wire Line
	8100 13150 8000 13150
Wire Wire Line
	8000 13150 8000 12950
Wire Wire Line
	9450 12550 9450 12150
Wire Wire Line
	9450 12150 9800 12150
Wire Wire Line
	9800 12150 9800 12000
Wire Wire Line
	9050 12150 8950 12150
Connection ~ 8950 12150
Wire Wire Line
	9250 12150 9350 12150
Connection ~ 9350 12150
Wire Wire Line
	9550 12550 9550 12350
Wire Wire Line
	9550 12350 10150 12350
Wire Wire Line
	10150 12000 10150 12050
Wire Wire Line
	10150 12350 10150 12250
Wire Wire Line
	10150 13350 10450 13350
Wire Wire Line
	10450 13350 10450 13950
Wire Wire Line
	10150 13450 10450 13450
Connection ~ 10450 13450
Wire Wire Line
	10150 13550 10450 13550
Connection ~ 10450 13550
Wire Wire Line
	10150 13650 10450 13650
Connection ~ 10450 13650
Wire Wire Line
	10150 13750 10450 13750
Connection ~ 10450 13750
Wire Wire Line
	9550 14550 9550 14700
Wire Wire Line
	9350 14550 9350 15200
Wire Wire Line
	10300 6700 11350 6700
Wire Wire Line
	10300 6600 11350 6600
Wire Wire Line
	7900 5700 6850 5700
Wire Wire Line
	7900 5800 6850 5800
Wire Wire Line
	8750 13450 7950 13450
Wire Wire Line
	8750 13550 7950 13550
Wire Wire Line
	8750 13650 7950 13650
Wire Wire Line
	8750 13750 7950 13750
Wire Wire Line
	7900 6900 6850 6900
Wire Wire Line
	17475 10975 17475 11050
Connection ~ 17475 11050
Wire Wire Line
	16475 11050 17850 11050
Wire Wire Line
	4675 13675 4825 13675
Wire Wire Line
	4825 13675 4825 13825
Wire Wire Line
	2975 13275 2775 13275
Wire Wire Line
	2775 13275 2775 13825
Wire Wire Line
	2975 13075 2775 13075
Wire Wire Line
	2775 13075 2775 12375
Wire Wire Line
	2975 12975 1875 12975
Wire Wire Line
	2975 13175 1875 13175
Wire Wire Line
	2975 13375 1875 13375
Wire Wire Line
	2975 12875 1875 12875
Wire Wire Line
	7900 6700 7450 6700
Wire Wire Line
	6525 4300 6700 4300
Wire Wire Line
	6900 4300 7900 4300
Wire Wire Line
	8700 3400 9400 3400
Wire Wire Line
	8900 3500 8900 3400
Connection ~ 8900 3400
Wire Wire Line
	9000 3500 9000 3400
Connection ~ 9000 3400
Wire Wire Line
	9100 3500 9100 3400
Connection ~ 9100 3400
Wire Wire Line
	9200 3500 9200 3400
Connection ~ 9200 3400
Wire Wire Line
	9050 3400 9050 3300
Connection ~ 9050 3400
Wire Wire Line
	11950 1850 11950 1750
Wire Wire Line
	11950 2150 11950 2050
Wire Wire Line
	13050 1850 13050 1800
Wire Wire Line
	13050 1800 14550 1800
Wire Wire Line
	13650 1750 13650 1850
Connection ~ 13650 1800
Wire Wire Line
	13350 1850 13350 1800
Connection ~ 13350 1800
Wire Wire Line
	13950 1850 13950 1800
Connection ~ 13950 1800
Wire Wire Line
	13050 2100 14550 2100
Wire Wire Line
	13050 2100 13050 2050
Wire Wire Line
	13650 2050 13650 2150
Connection ~ 13650 2100
Wire Wire Line
	13350 2050 13350 2100
Connection ~ 13350 2100
Wire Wire Line
	13950 2050 13950 2100
Connection ~ 13950 2100
Wire Wire Line
	15450 1750 15450 1800
Wire Wire Line
	15300 1800 15600 1800
Wire Wire Line
	15300 1800 15300 1850
Wire Wire Line
	15600 1800 15600 1850
Connection ~ 15450 1800
Wire Wire Line
	15600 2050 15600 2100
Wire Wire Line
	15600 2100 15300 2100
Wire Wire Line
	15300 2100 15300 2050
Wire Wire Line
	15450 2100 15450 2150
Connection ~ 15450 2100
Wire Wire Line
	7150 6500 7900 6500
Wire Wire Line
	21500 5125 20750 5125
Wire Wire Line
	21500 5600 20750 5600
Wire Wire Line
	21500 6075 20750 6075
Wire Wire Line
	21500 6550 20750 6550
Wire Wire Line
	10300 3700 10550 3700
Wire Wire Line
	10300 3800 10550 3800
Wire Wire Line
	10300 3900 10550 3900
Wire Wire Line
	10300 4000 10550 4000
Wire Wire Line
	22225 5125 21975 5125
Wire Wire Line
	22225 5600 21975 5600
Wire Wire Line
	22225 6075 21975 6075
Wire Wire Line
	22225 6550 21975 6550
Wire Wire Line
	20175 5125 20075 5125
Wire Wire Line
	20175 5600 20075 5600
Wire Wire Line
	20175 6075 20075 6075
Wire Wire Line
	20175 6550 20075 6550
Wire Wire Line
	16600 5000 16600 5100
Wire Wire Line
	16600 5100 16750 5100
Wire Wire Line
	16750 5200 16600 5200
Wire Wire Line
	16600 5200 16600 5800
Wire Wire Line
	16750 5300 16600 5300
Connection ~ 16600 5300
Wire Wire Line
	16350 5400 16750 5400
Wire Wire Line
	16350 5000 16350 5400
Wire Wire Line
	16750 5500 15950 5500
Wire Wire Line
	15950 5600 16750 5600
Wire Wire Line
	17300 11750 17300 11325
Wire Wire Line
	17300 11325 17850 11325
Wire Wire Line
	17300 11950 17300 12125
Wire Wire Line
	17650 11300 17650 11325
Connection ~ 17650 11325
Wire Wire Line
	17650 11100 17650 11050
Connection ~ 17650 11050
Wire Wire Line
	18350 5300 17450 5300
Wire Wire Line
	11050 4100 10300 4100
Wire Wire Line
	10300 4200 11050 4200
Wire Wire Line
	18350 5200 17450 5200
Wire Wire Line
	18350 5100 17450 5100
Wire Wire Line
	10300 6000 11350 6000
Wire Wire Line
	10300 6100 11350 6100
Wire Wire Line
	18350 6600 17450 6600
Wire Wire Line
	18350 6700 17450 6700
Wire Wire Line
	18350 6800 17450 6800
Wire Wire Line
	18350 6900 17450 6900
Wire Wire Line
	18350 7000 17450 7000
Wire Wire Line
	16600 7000 16600 7200
Wire Wire Line
	16750 7000 16600 7000
Wire Wire Line
	16750 6600 15850 6600
Wire Wire Line
	16750 6700 15850 6700
Wire Wire Line
	16750 6800 15850 6800
Wire Wire Line
	16750 6900 15850 6900
Wire Wire Line
	10300 5400 11000 5400
Wire Wire Line
	10300 5500 11000 5500
Wire Wire Line
	10300 5600 11000 5600
Wire Wire Line
	10300 6400 11000 6400
Wire Wire Line
	11000 6500 10300 6500
Wire Wire Line
	11000 6800 10300 6800
Wire Wire Line
	10300 6900 11000 6900
Wire Wire Line
	7900 6000 7200 6000
Wire Wire Line
	7200 6100 7900 6100
Wire Wire Line
	7900 6200 7200 6200
Wire Wire Line
	18350 7950 17450 7950
Wire Wire Line
	18350 8050 17450 8050
Wire Wire Line
	18350 8150 17450 8150
Wire Wire Line
	18350 8250 17450 8250
Wire Wire Line
	18350 8350 17450 8350
Wire Wire Line
	16750 8050 15850 8050
Wire Wire Line
	16750 8150 15850 8150
Wire Wire Line
	16750 8250 15850 8250
Wire Wire Line
	16750 8350 15850 8350
Wire Wire Line
	18350 8450 17450 8450
Wire Wire Line
	10300 5800 11000 5800
Wire Wire Line
	10300 5900 11000 5900
Wire Wire Line
	7200 5300 7900 5300
Wire Wire Line
	7200 6600 7900 6600
Wire Wire Line
	16750 8450 15850 8450
Wire Wire Line
	16750 7950 16600 7950
Wire Wire Line
	16600 7950 16600 8650
Wire Wire Line
	7200 6400 7900 6400
Wire Wire Line
	11550 4700 12250 4700
Wire Wire Line
	10300 4500 11000 4500
Wire Wire Line
	10300 4600 11000 4600
Wire Wire Line
	7200 6300 7900 6300
Wire Wire Line
	18350 6500 17450 6500
Wire Wire Line
	7900 6800 7450 6800
Wire Wire Line
	7200 5900 7900 5900
Wire Wire Line
	14850 6700 14850 7100
Wire Wire Line
	15000 6900 14850 6900
Wire Wire Line
	15000 6700 14850 6700
Connection ~ 14850 6900
Wire Wire Line
	15000 8550 14850 8550
Wire Wire Line
	14850 7950 15000 7950
Wire Wire Line
	14550 8150 15000 8150
Wire Wire Line
	14850 7850 14850 7950
Wire Wire Line
	14550 7850 14550 8150
Wire Wire Line
	10300 4300 11550 4300
Wire Wire Line
	10300 4400 11550 4400
Wire Wire Line
	10300 5200 11550 5200
Wire Wire Line
	10300 5700 11550 5700
Wire Wire Line
	11700 14650 12000 14650
Wire Wire Line
	11700 14500 11700 14950
Wire Wire Line
	11700 14950 12000 14950
Connection ~ 11700 14650
Wire Wire Line
	11900 14650 11900 15150
Connection ~ 11900 14650
Wire Wire Line
	12450 15375 12450 15650
Wire Wire Line
	11900 15350 11900 15550
Wire Wire Line
	11900 15550 13200 15550
Connection ~ 12450 15550
Wire Wire Line
	12900 14650 13800 14650
Wire Wire Line
	13200 14500 13200 15150
Wire Wire Line
	13200 15550 13200 15350
Connection ~ 13200 14650
Wire Wire Line
	12900 14950 13000 14950
Wire Wire Line
	13000 14950 13000 15550
Connection ~ 13000 15550
Wire Wire Line
	11700 11875 11700 12325
Wire Wire Line
	2350 12875 2350 12750
Connection ~ 2350 12875
Wire Wire Line
	2350 12550 2350 12450
Wire Wire Line
	2350 12450 2775 12450
Connection ~ 2775 12450
Wire Wire Line
	2450 13700 2450 13750
Wire Wire Line
	2450 13750 2775 13750
Connection ~ 2775 13750
Wire Wire Line
	2450 13500 2450 12875
Connection ~ 2450 12875
Wire Wire Line
	2175 3075 2250 3075
Wire Wire Line
	2250 3075 2250 2700
Wire Wire Line
	3150 1750 3150 1900
Wire Wire Line
	3150 2100 3150 2450
Wire Wire Line
	3150 2250 3700 2250
Connection ~ 3150 2250
Wire Wire Line
	3150 2750 3150 2650
Wire Wire Line
	16750 6500 16600 6500
Wire Wire Line
	16600 6500 16600 6400
Wire Wire Line
	17400 2200 17200 2200
Wire Wire Line
	17700 2400 17700 2550
Wire Wire Line
	17700 1550 17700 2000
Wire Wire Line
	16650 2200 17000 2200
Wire Wire Line
	19700 2600 20050 2600
Wire Wire Line
	20650 2600 21000 2600
Wire Wire Line
	14550 1800 14550 1850
Wire Wire Line
	14550 2100 14550 2050
Wire Wire Line
	20075 6550 20075 6650
Wire Wire Line
	20075 6075 20075 6175
Wire Wire Line
	20075 5600 20075 5700
Wire Wire Line
	20075 5125 20075 5225
Wire Wire Line
	20050 2600 20050 2300
Wire Wire Line
	20050 1950 20050 2100
Wire Wire Line
	20050 1750 20050 1600
Wire Wire Line
	21000 2600 21000 2300
Wire Wire Line
	21000 1950 21000 2100
Wire Wire Line
	21000 1750 21000 1600
Wire Wire Line
	17450 5400 17800 5400
Wire Wire Line
	18000 5400 18350 5400
Wire Wire Line
	18150 5500 18350 5500
Wire Wire Line
	18300 5600 18350 5600
Wire Wire Line
	17950 5500 17450 5500
Wire Wire Line
	17450 5600 18100 5600
Wire Wire Line
	2175 3275 2250 3275
Wire Wire Line
	2175 3375 2450 3375
Wire Wire Line
	2175 3475 2650 3475
Wire Wire Line
	2450 3275 3225 3275
Wire Wire Line
	3225 3375 2650 3375
Wire Wire Line
	2850 3475 3225 3475
Wire Wire Line
	9250 12450 9350 12450
Connection ~ 9350 12450
Wire Wire Line
	8950 12000 8950 12450
Wire Wire Line
	2650 3275 2650 3150
Connection ~ 2650 3275
Wire Wire Line
	2650 2950 2650 2850
Connection ~ 19050 10825
Wire Wire Line
	21875 10650 21875 11100
Wire Wire Line
	13800 15150 13800 15300
Wire Wire Line
	13800 15500 13800 15650
Wire Wire Line
	13800 14650 13800 14950
Wire Wire Line
	7900 4000 6750 4000
Wire Wire Line
	7650 3800 7650 4000
Connection ~ 7650 4000
Wire Wire Line
	7650 3400 7650 3600
Wire Wire Line
	5900 4950 7750 4950
Wire Wire Line
	7750 5150 5900 5150
Connection ~ 6400 4950
Connection ~ 6400 5150
Wire Wire Line
	6275 5050 6150 5050
Wire Wire Line
	6150 5050 6150 5300
Wire Wire Line
	6525 5050 6650 5050
Wire Wire Line
	6650 5050 6650 5300
Wire Wire Line
	18900 11475 18750 11475
Wire Wire Line
	2000 2000 2000 1850
Wire Wire Line
	2000 1850 1850 1850
Wire Wire Line
	18725 13625 18325 13625
Wire Wire Line
	20675 13625 19725 13625
Wire Wire Line
	20400 13775 20400 13625
Connection ~ 20400 13625
Wire Wire Line
	19225 14475 19225 14075
Wire Wire Line
	18575 13875 18575 13625
Connection ~ 18575 13625
Wire Wire Line
	19875 13875 19875 13625
Connection ~ 19875 13625
Wire Wire Line
	19875 14375 19875 14075
Wire Wire Line
	18575 14375 19875 14375
Connection ~ 19225 14375
Wire Wire Line
	18575 14375 18575 14075
Wire Wire Line
	19050 13175 19050 13150
Wire Wire Line
	19050 13150 19400 13150
Wire Wire Line
	19400 13150 19400 13175
Wire Wire Line
	19225 13000 19225 13175
Connection ~ 19225 13150
Wire Wire Line
	19050 14075 19050 14200
Wire Wire Line
	19050 14200 19225 14200
Connection ~ 19225 14200
Wire Wire Line
	13275 11775 13275 12325
Connection ~ 13275 12325
Wire Wire Line
	13075 11775 13075 12125
Connection ~ 13075 12125
Wire Wire Line
	12200 12125 11700 12125
Connection ~ 11700 12125
Wire Wire Line
	12100 12325 12200 12325
Wire Wire Line
	12100 12325 12100 12675
Wire Wire Line
	11700 12525 11700 12625
Wire Wire Line
	11700 12625 12100 12625
Connection ~ 12100 12625
Wire Wire Line
	14400 4900 14400 5000
Wire Wire Line
	14400 5000 13850 5000
Wire Wire Line
	14800 4900 14800 5000
Wire Wire Line
	14800 5000 15300 5000
Wire Wire Line
	14850 8550 14850 8750
$Comp
L C_Small C27
U 1 1 5AF750F3
P 5825 13025
F 0 "C27" H 5835 13095 50  0000 L CNN
F 1 "100uF" H 5835 12945 50  0000 L CNN
F 2 "Capacitors_SMD:C_1206" H 5825 13025 50  0001 C CNN
F 3 "" H 5825 13025 50  0001 C CNN
	1    5825 13025
	1    0    0    -1  
$EndComp
$Comp
L +3.3V #PWR069
U 1 1 5AF750F9
P 5675 12825
F 0 "#PWR069" H 5675 12675 50  0001 C CNN
F 1 "+3.3V" H 5675 12965 50  0000 C CNN
F 2 "" H 5675 12825 50  0001 C CNN
F 3 "" H 5675 12825 50  0001 C CNN
	1    5675 12825
	1    0    0    -1  
$EndComp
$Comp
L GND #PWR070
U 1 1 5AF750FF
P 5675 13225
F 0 "#PWR070" H 5675 12975 50  0001 C CNN
F 1 "GND" H 5675 13075 50  0000 C CNN
F 2 "" H 5675 13225 50  0001 C CNN
F 3 "" H 5675 13225 50  0001 C CNN
	1    5675 13225
	1    0    0    -1  
$EndComp
$Comp
L C_Small C26
U 1 1 5AF75105
P 5525 13025
F 0 "C26" H 5535 13095 50  0000 L CNN
F 1 "100nF" H 5535 12945 50  0000 L CNN
F 2 "Capacitors_SMD:C_0402_NoSilk" H 5525 13025 50  0001 C CNN
F 3 "" H 5525 13025 50  0001 C CNN
	1    5525 13025
	1    0    0    -1  
$EndComp
Wire Wire Line
	5675 12825 5675 12875
Wire Wire Line
	5525 12875 5825 12875
Wire Wire Line
	5525 12875 5525 12925
Wire Wire Line
	5825 12875 5825 12925
Connection ~ 5675 12875
Wire Wire Line
	5825 13125 5825 13175
Wire Wire Line
	5825 13175 5525 13175
Wire Wire Line
	5525 13175 5525 13125
Wire Wire Line
	5675 13175 5675 13225
Connection ~ 5675 13175
$EndSCHEMATC
